{
    "name": "tc-www-rspec",
    "serviceRole": "arn:aws:iam::738011128897:role/service-role/codebuild-tc-www-build-service-role",
    "tags": [],
    "artifacts": {
        "namespaceType": "NONE",
        "packaging": "NONE",
        "type": "S3",
        "location": "codepipeline-us-east-1-791406243519",
        "name": "tc-www-rspec"
    },
    "timeoutInMinutes": 60,
    "environment": {
        "computeType": "BUILD_GENERAL1_LARGE",
        "privilegedMode": true,
        "image": "aws/codebuild/docker:17.09.0",
        "type": "LINUX_CONTAINER",
        "environmentVariables": [
            {
                "name": "SECRETS_FILE",
                "value": "secrets-dev.tunecore.com/test/tc-www/secrets.txt"
            },
            {
                "name": "DEPLOYMENT_FILE",
                "value": "infra.tunecore.com/deployment/test/deployment.txt"
            },
            {
              "name": "BUNDLE_ENTERPRISE__CONTRIBSYS__COM",
              "value": "/CodeBuild/SIDEKIQ_ENTERPRISE_BUNDLE_KEY",
              "type": "PARAMETER_STORE"
            },
            {
              "name": "BUNDLE_GEM__FURY__IO",
              "value": "/CodeBuild/GEMFURY_BUNDLE_KEY",
              "type": "PARAMETER_STORE"
            },
            {
              "name": "AWS_ACCESS_KEY_ID",
              "value": "/CodeBuild/AWS_ACCESS_KEY_ID",
              "type": "PARAMETER_STORE"
            },
            {
              "name": "AWS_SECRET_ACCESS_KEY",
              "value": "/CodeBuild/AWS_SECRET_ACCESS_KEY",
              "type": "PARAMETER_STORE"
            }
        ]
    },
    "source": {
      "buildspec": "infra/buildspecs/buildspec_rspec.yml",
      "type": "GITHUB",
      "location": "https://github.com/tunecore/tc-www.git",
      "auth": {
        "type": "OAUTH"
      }
    },
    "encryptionKey": "arn:aws:kms:us-east-1:738011128897:alias/aws/s3",
    "description": "Build project for running specs"
}
