{
    "pipeline": {
        "name": "tc-www-qa4-deploy",
        "roleArn": "arn:aws:iam::738011128897:role/AWS-CodePipeline-Service",
        "artifactStore": {
            "type": "S3",
            "location": "codepipeline-us-east-1-791406243519"
        },
        "stages": [
            {
                "name": "Source",
                "actions": [
                    {
                        "name": "Source",
                        "actionTypeId": {
                            "category": "Source",
                            "owner": "ThirdParty",
                            "provider": "GitHub",
                            "version": "1"
                        },
                        "runOrder": 1,
                        "configuration": {
                            "Branch": "master",
                            "OAuthToken": "10040cf91e40043c199d2ded5ea9258821eabe09",
                            "Owner": "tunecore",
                            "PollForSourceChanges": "true",
                            "Repo": "tc-www"
                        },
                        "outputArtifacts": [
                            {
                                "name": "TcWww"
                            }
                        ],
                        "inputArtifacts": []
                    }
                ]
            },
            {
                "name": "BuildDocker",
                "actions": [
                    {
                        "name": "BuildNginx",
                        "actionTypeId": {
                            "category": "Build",
                            "owner": "AWS",
                            "provider": "CodeBuild",
                            "version": "1"
                        },
                        "runOrder": 1,
                        "configuration": {
                            "ProjectName": "tc-www-qa4-nginx-build"
                        },
                        "outputArtifacts": [],
                        "inputArtifacts": [
                            {
                                "name": "TcWww"
                            }
                        ]
                    },
                    {
                        "name": "BuildWeb",
                        "actionTypeId": {
                            "category": "Build",
                            "owner": "AWS",
                            "provider": "CodeBuild",
                            "version": "1"
                        },
                        "runOrder": 1,
                        "configuration": {
                            "ProjectName": "tc-www-qa4-puma-build"
                        },
                        "outputArtifacts": [],
                        "inputArtifacts": [
                            {
                                "name": "TcWww"
                            }
                        ]
                    },
                    {
                        "name": "BuildSidekiq",
                        "actionTypeId": {
                            "category": "Build",
                            "owner": "AWS",
                            "provider": "CodeBuild",
                            "version": "1"
                        },
                        "runOrder": 1,
                        "configuration": {
                            "ProjectName": "tc-www-qa4-sidekiq-build"
                        },
                        "outputArtifacts": [],
                        "inputArtifacts": [
                            {
                                "name": "TcWww"
                            }
                        ]
                    }
                ]
            },
            {
                "name": "DeployStaging",
                "actions": [
                    {
                        "name": "DeploySidekiq",
                        "actionTypeId": {
                            "category": "Build",
                            "owner": "AWS",
                            "provider": "CodeBuild",
                            "version": "1"
                        },
                        "runOrder": 1,
                        "configuration": {
                            "ProjectName": "tc-www-qa4-sidekiq-deploy"
                        },
                        "outputArtifacts": [],
                        "inputArtifacts": [
                            {
                                "name": "TcWww"
                            }
                        ]
                    },
                    {
                        "name": "DeployWeb",
                        "actionTypeId": {
                            "category": "Build",
                            "owner": "AWS",
                            "provider": "CodeBuild",
                            "version": "1"
                        },
                        "runOrder": 1,
                        "configuration": {
                            "ProjectName": "tc-www-qa4-web-deploy"
                        },
                        "outputArtifacts": [],
                        "inputArtifacts": [
                            {
                                "name": "TcWww"
                            }
                        ]
                    }
                ]
            }
        ],
        "version": 1
    },
    "metadata": {
        "pipelineArn": "arn:aws:codepipeline:us-east-1:738011128897:tc-www-qa4-deploy",
        "created": 1550304589.028,
        "updated": 1550304589.028
    }
}
