1,"None","2009-04-20 16:49:35","2009-04-20 16:49:35",NULL
2,"Antique","2009-04-20 16:49:35","2009-04-20 16:49:35",1
3,"Antique","2009-04-20 16:49:35","2009-04-20 16:49:35",2
4,"Antique","2009-04-20 16:49:35","2009-04-20 16:49:35",3
5,"Blur","2009-04-20 16:49:35","2009-04-20 16:49:35",1
6,"Blur","2009-04-20 16:49:35","2009-04-20 16:49:35",2
7,"Blur","2009-04-20 16:49:35","2009-04-20 16:49:35",3
8,"Black_and_white","2009-04-20 16:49:35","2009-04-20 16:49:35",1
9,"Black_and_white","2009-04-20 16:49:35","2009-04-20 16:49:35",2
10,"Black_and_white","2009-04-20 16:49:35","2009-04-20 16:49:35",3
11,"Halftone","2009-04-20 16:49:35","2009-04-20 16:49:35",NULL
12,"Gray_halftone","2009-04-20 16:49:35","2009-04-20 16:49:35",NULL
13,"Obama","2009-04-20 16:49:35","2009-04-20 16:49:35",NULL
14,"Glow","2009-04-20 16:49:35","2009-04-20 16:49:35",1
15,"Glow","2009-04-20 16:49:35","2009-04-20 16:49:35",2
16,"Glow","2009-04-20 16:49:35","2009-04-20 16:49:35",3
17,"Video","2009-04-20 16:49:35","2009-04-20 16:49:35",1
18,"Video","2009-04-20 16:49:35","2009-04-20 16:49:35",2
19,"Video","2009-04-20 16:49:35","2009-04-20 16:49:35",3
