"62378","E4Y2E4","Rogersville","New Brunswick","NB","D","46.732100000000003","-65.270200000000003"
"124756","G7A1N3","Saint-Nicolas","Quebec","QC","D","46.698399999999999","-71.364500000000007"
"187134","H7R5Z6","Laval","Quebec","QC","D","45.559699999999999","-73.854500000000002"
"249512","J6Y1B4","Terrebonne","Quebec","QC","D","45.694600000000001","-73.722099999999998"
"311890","K8P2G6","Belleville","Ontario","ON","D","44.154400000000003","-77.386099999999999"
"374268","L5R4G4","Mississauga","Ontario","ON","D","43.594400000000000","-79.693500000000000"
"436646","M4Y3A5","Toronto","Ontario","ON","D","43.667700000000004","-79.376300000000001"
"499024","N6K3A5","London","Ontario","ON","D","42.939100000000003","-81.342399999999998"
"561402","S4A2T1","Estevan","Saskatchewan","SK","D","49.130299999999998","-102.980099999999990"
"623780","T5J4X6","Edmonton","Alberta","AB","D","53.543300000000002","-113.511799999999990"
