1,30,1,NULL,"USD","2015-12-15 13:50:34","2015-12-15 13:50:34"
2,31,1,NULL,"USD","2015-12-15 13:50:34","2015-12-15 13:50:34"
3,32,1,NULL,"USD","2015-12-15 13:50:34","2015-12-15 13:50:34"
4,33,1,NULL,"USD","2015-12-15 13:50:34","2015-12-15 13:50:34"
5,34,1,NULL,"USD","2015-12-15 13:50:34","2015-12-15 13:50:34"
6,35,1,NULL,"USD","2015-12-15 13:50:34","2015-12-15 13:50:34"
7,37,1,NULL,"USD","2015-12-15 13:50:34","2015-12-15 13:50:34"
8,38,1,NULL,"USD","2015-12-15 13:50:34","2015-12-15 13:50:34"
9,39,1,NULL,"USD","2015-12-15 13:50:34","2015-12-15 13:50:34"
10,40,1,NULL,"USD","2015-12-15 13:50:34","2015-12-15 13:50:34"
11,41,1,NULL,"USD","2015-12-15 13:50:34","2015-12-15 13:50:34"
12,42,1,NULL,"USD","2015-12-15 13:50:34","2015-12-15 13:50:34"
13,43,1,NULL,"USD","2015-12-15 13:50:34","2015-12-15 13:50:34"
14,44,1,NULL,"USD","2015-12-15 13:50:34","2015-12-15 13:50:34"
15,45,1,NULL,"USD","2015-12-15 13:50:34","2015-12-15 13:50:34"
16,46,1,NULL,"USD","2015-12-15 13:50:34","2015-12-15 13:50:34"
17,47,1,NULL,"USD","2015-12-15 13:50:34","2015-12-15 13:50:34"
18,48,1,NULL,"USD","2015-12-15 13:50:34","2015-12-15 13:50:34"
19,30,2,NULL,"CAD","2015-12-15 13:50:34","2015-12-15 13:50:34"
20,31,2,NULL,"CAD","2015-12-15 13:50:34","2015-12-15 13:50:34"
21,32,2,NULL,"CAD","2015-12-15 13:50:34","2015-12-15 13:50:34"
22,33,2,NULL,"CAD","2015-12-15 13:50:34","2015-12-15 13:50:34"
23,34,2,NULL,"CAD","2015-12-15 13:50:34","2015-12-15 13:50:34"
24,35,2,NULL,"CAD","2015-12-15 13:50:34","2015-12-15 13:50:34"
25,37,2,NULL,"CAD","2015-12-15 13:50:34","2015-12-15 13:50:34"
26,38,2,NULL,"CAD","2015-12-15 13:50:34","2015-12-15 13:50:34"
27,39,2,NULL,"CAD","2015-12-15 13:50:34","2015-12-15 13:50:34"
28,40,2,NULL,"CAD","2015-12-15 13:50:34","2015-12-15 13:50:34"
29,41,2,NULL,"CAD","2015-12-15 13:50:34","2015-12-15 13:50:34"
30,42,2,NULL,"CAD","2015-12-15 13:50:34","2015-12-15 13:50:34"
31,43,2,NULL,"CAD","2015-12-15 13:50:34","2015-12-15 13:50:34"
32,44,2,NULL,"CAD","2015-12-15 13:50:34","2015-12-15 13:50:34"
33,45,2,NULL,"CAD","2015-12-15 13:50:34","2015-12-15 13:50:34"
34,46,2,NULL,"CAD","2015-12-15 13:50:34","2015-12-15 13:50:34"
35,47,2,NULL,"CAD","2015-12-15 13:50:34","2015-12-15 13:50:34"
36,48,2,NULL,"CAD","2015-12-15 13:50:34","2015-12-15 13:50:34"
37,30,3,1.35,"GBP","2015-12-15 13:50:34","2015-12-15 13:50:34"
38,31,3,0.57,"GBP","2015-12-15 13:50:34","2015-12-15 13:50:34"
39,32,3,3.75,"GBP","2015-12-15 13:50:34","2015-12-15 13:50:34"
40,33,3,0.72,"GBP","2015-12-15 13:50:34","2015-12-15 13:50:34"
41,34,3,4.85,"GBP","2015-12-15 13:50:34","2015-12-15 13:50:34"
42,35,3,2.15,"GBP","2015-12-15 13:50:34","2015-12-15 13:50:34"
43,37,3,3.25,"GBP","2015-12-15 13:50:34","2015-12-15 13:50:34"
44,38,3,1.07,"GBP","2015-12-15 13:50:34","2015-12-15 13:50:34"
45,39,3,4.30,"GBP","2015-12-15 13:50:34","2015-12-15 13:50:34"
46,40,3,0.80,"GBP","2015-12-15 13:50:34","2015-12-15 13:50:34"
47,41,3,1.62,"GBP","2015-12-15 13:50:34","2015-12-15 13:50:34"
48,42,3,5.95,"GBP","2015-12-15 13:50:34","2015-12-15 13:50:34"
49,43,3,0.40,"GBP","2015-12-15 13:50:34","2015-12-15 13:50:34"
50,44,3,2.70,"GBP","2015-12-15 13:50:34","2015-12-15 13:50:34"
51,45,3,6.45,"GBP","2015-12-15 13:50:34","2015-12-15 13:50:34"
52,46,3,7.00,"GBP","2015-12-15 13:50:34","2015-12-15 13:50:34"
53,47,3,7.55,"GBP","2015-12-15 13:50:34","2015-12-15 13:50:34"
54,48,3,8.10,"GBP","2015-12-15 13:50:34","2015-12-15 13:50:34"
55,30,4,3.99,"AUD","2015-12-15 13:50:34","2015-12-15 13:50:34"
56,31,4,0.99,"AUD","2015-12-15 13:50:34","2015-12-15 13:50:34"
57,32,4,8.99,"AUD","2015-12-15 13:50:34","2015-12-15 13:50:34"
58,33,4,1.29,"AUD","2015-12-15 13:50:34","2015-12-15 13:50:34"
59,34,4,10.99,"AUD","2015-12-15 13:50:34","2015-12-15 13:50:34"
60,35,4,5.99,"AUD","2015-12-15 13:50:34","2015-12-15 13:50:34"
61,37,4,7.99,"AUD","2015-12-15 13:50:34","2015-12-15 13:50:34"
62,38,4,2.99,"AUD","2015-12-15 13:50:34","2015-12-15 13:50:34"
63,39,4,9.99,"AUD","2015-12-15 13:50:34","2015-12-15 13:50:34"
64,40,4,1.98,"AUD","2015-12-15 13:50:34","2015-12-15 13:50:34"
65,41,4,4.99,"AUD","2015-12-15 13:50:34","2015-12-15 13:50:34"
66,42,4,11.99,"AUD","2015-12-15 13:50:34","2015-12-15 13:50:34"
67,43,4,0.69,"AUD","2015-12-15 13:50:34","2015-12-15 13:50:34"
68,44,4,6.99,"AUD","2015-12-15 13:50:34","2015-12-15 13:50:34"
69,45,4,12.99,"AUD","2015-12-15 13:50:34","2015-12-15 13:50:34"
70,46,4,13.99,"AUD","2015-12-15 13:50:34","2015-12-15 13:50:34"
71,47,4,14.99,"AUD","2015-12-15 13:50:34","2015-12-15 13:50:34"
72,48,4,15.99,"AUD","2015-12-15 13:50:34","2015-12-15 13:50:34"
73,30,5,1.62,"EUR","2016-09-09 10:19:12","2016-09-09 10:19:12"
74,31,5,0.71,"EUR","2016-09-09 10:19:12","2016-09-09 10:19:12"
75,32,5,4.35,"EUR","2016-09-09 10:19:12","2016-09-09 10:19:12"
76,33,5,0.90,"EUR","2016-09-09 10:19:12","2016-09-09 10:19:12"
77,34,5,5.45,"EUR","2016-09-09 10:19:12","2016-09-09 10:19:12"
78,35,5,2.70,"EUR","2016-09-09 10:19:12","2016-09-09 10:19:12"
79,37,5,3.80,"EUR","2016-09-09 10:19:12","2016-09-09 10:19:12"
80,38,5,1.08,"EUR","2016-09-09 10:19:12","2016-09-09 10:19:12"
81,39,5,4.90,"EUR","2016-09-09 10:19:12","2016-09-09 10:19:12"
82,40,5,0.81,"EUR","2016-09-09 10:19:12","2016-09-09 10:19:12"
83,41,5,2.18,"EUR","2016-09-09 10:19:12","2016-09-09 10:19:12"
84,42,5,6.50,"EUR","2016-09-09 10:19:12","2016-09-09 10:19:12"
85,43,5,0.50,"EUR","2016-09-09 10:19:12","2016-09-09 10:19:12"
86,44,5,3.25,"EUR","2016-09-09 10:19:12","2016-09-09 10:19:12"
87,45,5,7.05,"EUR","2016-09-09 10:19:12","2016-09-09 10:19:12"
88,46,5,7.60,"EUR","2016-09-09 10:19:12","2016-09-09 10:19:12"
89,47,5,8.15,"EUR","2016-09-09 10:19:12","2016-09-09 10:19:12"
90,48,5,8.70,"EUR","2016-09-09 10:19:12","2016-09-09 10:19:12"
91,30,6,1.62,"EUR","2016-09-29 10:27:58","2016-09-29 10:27:58"
92,31,6,0.71,"EUR","2016-09-29 10:27:58","2016-09-29 10:27:58"
93,32,6,4.35,"EUR","2016-09-29 10:27:58","2016-09-29 10:27:58"
94,33,6,0.90,"EUR","2016-09-29 10:27:58","2016-09-29 10:27:58"
95,34,6,5.45,"EUR","2016-09-29 10:27:58","2016-09-29 10:27:58"
96,35,6,2.70,"EUR","2016-09-29 10:27:58","2016-09-29 10:27:58"
97,37,6,3.80,"EUR","2016-09-29 10:27:58","2016-09-29 10:27:58"
98,38,6,1.08,"EUR","2016-09-29 10:27:58","2016-09-29 10:27:58"
99,39,6,4.90,"EUR","2016-09-29 10:27:58","2016-09-29 10:27:58"
100,40,6,0.81,"EUR","2016-09-29 10:27:58","2016-09-29 10:27:58"
101,41,6,2.18,"EUR","2016-09-29 10:27:58","2016-09-29 10:27:58"
102,42,6,6.50,"EUR","2016-09-29 10:27:58","2016-09-29 10:27:58"
103,43,6,0.50,"EUR","2016-09-29 10:27:58","2016-09-29 10:27:58"
104,44,6,3.25,"EUR","2016-09-29 10:27:58","2016-09-29 10:27:58"
105,45,6,7.05,"EUR","2016-09-29 10:27:58","2016-09-29 10:27:58"
106,46,6,7.60,"EUR","2016-09-29 10:27:58","2016-09-29 10:27:58"
107,47,6,8.15,"EUR","2016-09-29 10:27:58","2016-09-29 10:27:58"
108,48,6,8.70,"EUR","2016-09-29 10:27:58","2016-09-29 10:27:58"
109,30,7,1.62,"EUR","2016-09-29 10:27:58","2016-09-29 10:27:58"
110,31,7,0.71,"EUR","2016-09-29 10:27:58","2016-09-29 10:27:58"
111,32,7,4.35,"EUR","2016-09-29 10:27:58","2016-09-29 10:27:58"
112,33,7,0.90,"EUR","2016-09-29 10:27:58","2016-09-29 10:27:58"
113,34,7,5.45,"EUR","2016-09-29 10:27:58","2016-09-29 10:27:58"
114,35,7,2.70,"EUR","2016-09-29 10:27:58","2016-09-29 10:27:58"
115,37,7,3.80,"EUR","2016-09-29 10:27:58","2016-09-29 10:27:58"
116,38,7,1.08,"EUR","2016-09-29 10:27:58","2016-09-29 10:27:58"
117,39,7,4.90,"EUR","2016-09-29 10:27:58","2016-09-29 10:27:58"
118,40,7,0.81,"EUR","2016-09-29 10:27:58","2016-09-29 10:27:58"
119,41,7,2.18,"EUR","2016-09-29 10:27:58","2016-09-29 10:27:58"
120,42,7,6.50,"EUR","2016-09-29 10:27:58","2016-09-29 10:27:58"
121,43,7,0.50,"EUR","2016-09-29 10:27:58","2016-09-29 10:27:58"
122,44,7,3.25,"EUR","2016-09-29 10:27:58","2016-09-29 10:27:58"
123,45,7,7.05,"EUR","2016-09-29 10:27:58","2016-09-29 10:27:58"
124,46,7,7.60,"EUR","2016-09-29 10:27:58","2016-09-29 10:27:58"
125,47,7,8.15,"EUR","2016-09-29 10:27:58","2016-09-29 10:27:58"
126,48,7,8.70,"EUR","2016-09-29 10:27:58","2016-09-29 10:27:58"
127,30,8,NULL,"USD","2020-03-30 12:42:00","2020-03-30 12:42:00"
128,31,8,NULL,"USD","2020-03-30 12:42:00","2020-03-30 12:42:00"
129,32,8,NULL,"USD","2020-03-30 12:42:00","2020-03-30 12:42:00"
130,33,8,NULL,"USD","2020-03-30 12:42:00","2020-03-30 12:42:00"
131,34,8,NULL,"USD","2020-03-30 12:42:00","2020-03-30 12:42:00"
132,35,8,NULL,"USD","2020-03-30 12:42:00","2020-03-30 12:42:00"
133,37,8,NULL,"USD","2020-03-30 12:42:00","2020-03-30 12:42:00"
134,38,8,NULL,"USD","2020-03-30 12:42:00","2020-03-30 12:42:00"
135,39,8,NULL,"USD","2020-03-30 12:42:00","2020-03-30 12:42:00"
136,40,8,NULL,"USD","2020-03-30 12:42:00","2020-03-30 12:42:00"
137,41,8,NULL,"USD","2020-03-30 12:42:00","2020-03-30 12:42:00"
138,42,8,NULL,"USD","2020-03-30 12:42:00","2020-03-30 12:42:00"
139,43,8,NULL,"USD","2020-03-30 12:42:00","2020-03-30 12:42:00"
140,44,8,NULL,"USD","2020-03-30 12:42:00","2020-03-30 12:42:00"
141,45,8,NULL,"USD","2020-03-30 12:42:00","2020-03-30 12:42:00"
142,46,8,NULL,"USD","2020-03-30 12:42:00","2020-03-30 12:42:00"
143,47,8,NULL,"USD","2020-03-30 12:42:00","2020-03-30 12:42:00"
144,48,8,NULL,"USD","2020-03-30 12:42:00","2020-03-30 12:42:00"
