1,2,2,NULL,462,NULL,682,NULL,NULL,"2016-04-04 11:36:39","2016-04-04 11:36:39"
2,5,5,NULL,459,NULL,683,NULL,NULL,"2016-04-04 11:36:39","2016-04-04 11:36:39"
3,6,6,NULL,458,NULL,684,NULL,NULL,"2016-04-04 11:36:39","2016-04-04 11:36:39"
4,7,7,NULL,NULL,NULL,945,NULL,NULL,"2016-04-04 11:36:39","2016-04-04 11:36:39"
5,8,8,NULL,NULL,NULL,685,NULL,NULL,"2016-04-04 11:36:39","2016-04-04 11:36:39"
6,9,9,NULL,454,NULL,686,NULL,NULL,"2016-04-04 11:36:39","2016-04-04 11:36:39"
7,10,10,NULL,452,NULL,687,NULL,NULL,"2016-04-04 11:36:39","2016-04-04 11:36:39"
8,13,13,NULL,448,NULL,688,NULL,NULL,"2016-04-04 11:36:39","2016-04-04 11:36:39"
9,14,14,NULL,446,NULL,689,NULL,NULL,"2016-04-04 11:36:39","2016-04-04 11:36:39"
10,15,15,NULL,445,NULL,690,NULL,NULL,"2016-04-04 11:36:39","2016-04-04 11:36:39"
11,16,16,NULL,443,NULL,681,NULL,NULL,"2016-04-04 11:36:39","2016-04-04 11:36:39"
12,17,17,NULL,441,NULL,691,NULL,NULL,"2016-04-04 11:36:39","2016-04-04 11:36:39"
13,18,18,NULL,439,NULL,692,NULL,NULL,"2016-04-04 11:36:39","2016-04-04 11:36:39"
14,19,19,NULL,438,NULL,693,NULL,NULL,"2016-04-04 11:36:39","2016-04-04 11:36:39"
15,21,21,NULL,435,NULL,694,NULL,NULL,"2016-04-04 11:36:39","2016-04-04 11:36:39"
16,21,21,NULL,435,NULL,694,NULL,NULL,"2016-04-04 11:36:39","2016-04-04 11:36:39"
17,21,21,NULL,435,NULL,694,NULL,NULL,"2016-04-04 11:36:39","2016-04-04 11:36:39"
18,22,22,NULL,430,NULL,695,NULL,NULL,"2016-04-04 11:36:39","2016-04-04 11:36:39"
19,23,23,NULL,NULL,NULL,NULL,NULL,NULL,"2016-04-04 11:36:39","2016-04-04 11:36:39"
20,28,28,NULL,NULL,NULL,946,NULL,NULL,"2016-04-04 11:36:39","2016-04-04 11:36:39"
21,29,29,NULL,567,NULL,696,NULL,NULL,"2016-04-04 11:36:39","2016-04-04 11:36:39"
22,30,30,NULL,429,NULL,697,NULL,NULL,"2016-04-04 11:36:39","2016-04-04 11:36:39"
23,31,31,NULL,433,NULL,698,NULL,NULL,"2016-04-04 11:36:39","2016-04-04 11:36:39"
24,31,31,NULL,433,NULL,698,NULL,NULL,"2016-04-04 11:36:39","2016-04-04 11:36:39"
25,31,31,NULL,433,NULL,698,NULL,NULL,"2016-04-04 11:36:39","2016-04-04 11:36:39"
26,32,32,NULL,NULL,NULL,699,NULL,NULL,"2016-04-04 11:36:39","2016-04-04 11:36:39"
27,34,34,NULL,NULL,NULL,700,NULL,NULL,"2016-04-04 11:36:39","2016-04-04 11:36:39"
28,35,35,NULL,562,NULL,701,NULL,NULL,"2016-04-04 11:36:39","2016-04-04 11:36:39"
29,36,36,NULL,560,NULL,702,NULL,NULL,"2016-04-04 11:36:39","2016-04-04 11:36:39"
30,37,37,NULL,474,NULL,703,NULL,NULL,"2016-04-04 11:36:39","2016-04-04 11:36:39"
31,38,38,NULL,555,NULL,704,NULL,NULL,"2016-04-04 11:36:39","2016-04-04 11:36:39"
32,39,39,NULL,549,NULL,705,NULL,NULL,"2016-04-04 11:36:39","2016-04-04 11:36:39"
33,40,40,NULL,543,NULL,706,NULL,NULL,"2016-04-04 11:36:39","2016-04-04 11:36:39"
34,41,41,NULL,NULL,NULL,NULL,NULL,NULL,"2016-04-04 11:36:39","2016-04-04 11:36:39"
35,42,42,NULL,472,NULL,707,NULL,NULL,"2016-04-04 11:36:39","2016-04-04 11:36:39"
36,43,43,NULL,541,NULL,708,NULL,NULL,"2016-04-04 11:36:39","2016-04-04 11:36:39"
37,45,45,NULL,536,NULL,709,NULL,NULL,"2016-04-04 11:36:39","2016-04-04 11:36:39"
38,46,46,NULL,533,NULL,710,NULL,NULL,"2016-04-04 11:36:39","2016-04-04 11:36:39"
39,47,47,NULL,531,NULL,711,NULL,NULL,"2016-04-04 11:36:39","2016-04-04 11:36:39"
40,48,48,NULL,530,NULL,712,NULL,NULL,"2016-04-04 11:36:39","2016-04-04 11:36:39"
41,49,49,NULL,483,NULL,NULL,NULL,NULL,"2016-04-04 11:36:39","2016-04-04 11:36:39"
42,50,50,NULL,525,NULL,713,NULL,NULL,"2016-04-04 11:36:39","2016-04-04 11:36:39"
43,51,51,NULL,521,NULL,714,NULL,NULL,"2016-04-04 11:36:39","2016-04-04 11:36:39"
44,52,52,NULL,NULL,NULL,715,NULL,NULL,"2016-04-04 11:36:39","2016-04-04 11:36:39"
45,53,53,NULL,NULL,NULL,NULL,NULL,NULL,"2016-04-04 11:36:39","2016-04-04 11:36:39"
46,54,54,NULL,514,NULL,716,NULL,NULL,"2016-04-04 11:36:39","2016-04-04 11:36:39"
47,55,295,NULL,512,NULL,975,NULL,NULL,"2016-04-04 11:36:39","2016-04-04 11:36:39"
48,56,56,NULL,509,NULL,718,NULL,NULL,"2016-04-04 11:36:39","2016-04-04 11:36:39"
49,57,57,NULL,502,NULL,719,NULL,NULL,"2016-04-04 11:36:39","2016-04-04 11:36:39"
50,58,58,NULL,NULL,NULL,NULL,NULL,NULL,"2016-04-04 11:36:39","2016-04-04 11:36:39"
51,59,59,NULL,497,NULL,720,NULL,NULL,"2016-04-04 11:36:39","2016-04-04 11:36:39"
52,60,60,NULL,494,NULL,721,NULL,NULL,"2016-04-04 11:36:39","2016-04-04 11:36:39"
53,61,61,NULL,491,NULL,722,NULL,NULL,"2016-04-04 11:36:39","2016-04-04 11:36:39"
54,62,62,NULL,489,NULL,947,NULL,NULL,"2016-04-04 11:36:39","2016-04-04 11:36:39"
55,62,62,NULL,489,NULL,947,NULL,NULL,"2016-04-04 11:36:39","2016-04-04 11:36:39"
56,63,63,NULL,NULL,NULL,NULL,NULL,NULL,"2016-04-04 11:36:39","2016-04-04 11:36:39"
57,64,64,NULL,487,NULL,723,NULL,NULL,"2016-04-04 11:36:39","2016-04-04 11:36:39"
58,65,65,NULL,NULL,NULL,724,NULL,NULL,"2016-04-04 11:36:39","2016-04-04 11:36:39"
59,66,66,NULL,557,NULL,725,NULL,NULL,"2016-04-04 11:36:39","2016-04-04 11:36:39"
60,67,67,NULL,559,NULL,726,NULL,NULL,"2016-04-04 11:36:39","2016-04-04 11:36:39"
61,68,68,NULL,NULL,NULL,727,NULL,NULL,"2016-04-04 11:36:39","2016-04-04 11:36:39"
62,69,69,NULL,556,NULL,728,NULL,NULL,"2016-04-04 11:36:39","2016-04-04 11:36:39"
63,69,69,NULL,556,NULL,728,NULL,NULL,"2016-04-04 11:36:39","2016-04-04 11:36:39"
64,69,69,NULL,556,NULL,728,NULL,NULL,"2016-04-04 11:36:39","2016-04-04 11:36:39"
65,71,71,NULL,554,NULL,729,NULL,NULL,"2016-04-04 11:36:39","2016-04-04 11:36:39"
66,72,72,NULL,NULL,NULL,948,NULL,NULL,"2016-04-04 11:36:39","2016-04-04 11:36:39"
67,72,72,NULL,NULL,NULL,948,NULL,NULL,"2016-04-04 11:36:39","2016-04-04 11:36:39"
68,73,73,NULL,NULL,NULL,730,NULL,NULL,"2016-04-04 11:36:39","2016-04-04 11:36:39"
69,73,73,NULL,NULL,NULL,730,NULL,NULL,"2016-04-04 11:36:39","2016-04-04 11:36:39"
70,74,74,NULL,553,NULL,731,NULL,NULL,"2016-04-04 11:36:39","2016-04-04 11:36:39"
71,75,75,NULL,NULL,NULL,949,NULL,NULL,"2016-04-04 11:36:39","2016-04-04 11:36:39"
72,76,76,NULL,551,NULL,732,NULL,NULL,"2016-04-04 11:36:39","2016-04-04 11:36:39"
73,77,77,NULL,478,NULL,733,NULL,NULL,"2016-04-04 11:36:39","2016-04-04 11:36:39"
74,78,78,NULL,550,NULL,734,NULL,NULL,"2016-04-04 11:36:39","2016-04-04 11:36:39"
75,79,79,NULL,548,NULL,735,NULL,NULL,"2016-04-04 11:36:39","2016-04-04 11:36:39"
76,80,80,NULL,545,NULL,736,NULL,NULL,"2016-04-04 11:36:39","2016-04-04 11:36:39"
77,81,81,NULL,547,NULL,737,NULL,NULL,"2016-04-04 11:36:39","2016-04-04 11:36:39"
78,82,82,NULL,544,NULL,738,NULL,NULL,"2016-04-04 11:36:39","2016-04-04 11:36:39"
79,83,83,NULL,NULL,NULL,739,NULL,NULL,"2016-04-04 11:36:39","2016-04-04 11:36:39"
80,84,84,NULL,542,NULL,740,NULL,NULL,"2016-04-04 11:36:39","2016-04-04 11:36:39"
81,85,85,NULL,NULL,NULL,NULL,NULL,NULL,"2016-04-04 11:36:39","2016-04-04 11:36:39"
82,86,86,NULL,NULL,NULL,741,NULL,NULL,"2016-04-04 11:36:39","2016-04-04 11:36:39"
83,87,87,NULL,537,NULL,742,NULL,NULL,"2016-04-04 11:36:39","2016-04-04 11:36:39"
84,88,88,NULL,534,NULL,743,NULL,NULL,"2016-04-04 11:36:39","2016-04-04 11:36:39"
85,89,89,NULL,532,NULL,744,NULL,NULL,"2016-04-04 11:36:39","2016-04-04 11:36:39"
86,90,90,NULL,526,NULL,745,NULL,NULL,"2016-04-04 11:36:39","2016-04-04 11:36:39"
87,91,91,NULL,524,NULL,746,NULL,NULL,"2016-04-04 11:36:39","2016-04-04 11:36:39"
88,92,92,NULL,518,NULL,747,NULL,NULL,"2016-04-04 11:36:39","2016-04-04 11:36:39"
89,93,93,NULL,516,NULL,950,NULL,NULL,"2016-04-04 11:36:39","2016-04-04 11:36:39"
90,94,94,NULL,513,NULL,748,NULL,NULL,"2016-04-04 11:36:39","2016-04-04 11:36:39"
91,96,96,NULL,510,NULL,749,NULL,NULL,"2016-04-04 11:36:39","2016-04-04 11:36:39"
92,97,97,NULL,508,NULL,750,NULL,NULL,"2016-04-04 11:36:39","2016-04-04 11:36:39"
93,98,98,NULL,480,NULL,751,NULL,NULL,"2016-04-04 11:36:39","2016-04-04 11:36:39"
94,99,99,NULL,506,NULL,752,NULL,NULL,"2016-04-04 11:36:39","2016-04-04 11:36:39"
95,100,100,NULL,505,NULL,753,NULL,NULL,"2016-04-04 11:36:39","2016-04-04 11:36:39"
96,100,100,NULL,505,NULL,753,NULL,NULL,"2016-04-04 11:36:39","2016-04-04 11:36:39"
97,101,101,NULL,501,NULL,754,NULL,NULL,"2016-04-04 11:36:39","2016-04-04 11:36:39"
98,102,102,NULL,500,NULL,755,NULL,NULL,"2016-04-04 11:36:39","2016-04-04 11:36:39"
99,103,103,NULL,498,NULL,756,NULL,NULL,"2016-04-04 11:36:39","2016-04-04 11:36:39"
100,104,104,NULL,496,NULL,757,NULL,NULL,"2016-04-04 11:36:39","2016-04-04 11:36:39"
101,105,105,NULL,NULL,NULL,NULL,NULL,NULL,"2016-04-04 11:36:39","2016-04-04 11:36:39"
102,106,106,NULL,NULL,NULL,NULL,NULL,NULL,"2016-04-04 11:36:39","2016-04-04 11:36:39"
103,107,107,NULL,NULL,NULL,NULL,NULL,NULL,"2016-04-04 11:36:39","2016-04-04 11:36:39"
104,108,108,NULL,NULL,NULL,NULL,NULL,NULL,"2016-04-04 11:36:39","2016-04-04 11:36:39"
105,109,109,NULL,492,NULL,758,NULL,NULL,"2016-04-04 11:36:39","2016-04-04 11:36:39"
106,110,110,NULL,NULL,NULL,NULL,NULL,NULL,"2016-04-04 11:36:39","2016-04-04 11:36:39"
107,112,112,NULL,NULL,NULL,NULL,NULL,NULL,"2016-04-04 11:36:39","2016-04-04 11:36:39"
108,113,113,NULL,NULL,NULL,NULL,NULL,NULL,"2016-04-04 11:36:39","2016-04-04 11:36:39"
109,114,114,NULL,NULL,NULL,NULL,NULL,NULL,"2016-04-04 11:36:39","2016-04-04 11:36:39"
110,115,115,NULL,NULL,NULL,NULL,NULL,NULL,"2016-04-04 11:36:39","2016-04-04 11:36:39"
111,117,117,NULL,NULL,NULL,NULL,NULL,NULL,"2016-04-04 11:36:39","2016-04-04 11:36:39"
112,119,119,NULL,NULL,NULL,NULL,NULL,NULL,"2016-04-04 11:36:39","2016-04-04 11:36:39"
113,120,120,NULL,NULL,NULL,NULL,NULL,NULL,"2016-04-04 11:36:39","2016-04-04 11:36:39"
114,122,122,NULL,NULL,NULL,NULL,NULL,NULL,"2016-04-04 11:36:39","2016-04-04 11:36:39"
115,123,123,NULL,597,NULL,951,NULL,NULL,"2016-04-04 11:36:39","2016-04-04 11:36:39"
116,124,124,NULL,NULL,NULL,NULL,NULL,NULL,"2016-04-04 11:36:39","2016-04-04 11:36:39"
117,125,125,NULL,471,NULL,NULL,NULL,NULL,"2016-04-04 11:36:39","2016-04-04 11:36:39"
118,126,126,NULL,593,NULL,759,NULL,NULL,"2016-04-04 11:36:39","2016-04-04 11:36:39"
119,127,127,NULL,NULL,NULL,NULL,NULL,NULL,"2016-04-04 11:36:39","2016-04-04 11:36:39"
120,128,128,NULL,590,NULL,760,NULL,NULL,"2016-04-04 11:36:39","2016-04-04 11:36:39"
121,129,129,NULL,NULL,NULL,NULL,NULL,NULL,"2016-04-04 11:36:39","2016-04-04 11:36:39"
122,130,130,NULL,NULL,NULL,NULL,NULL,NULL,"2016-04-04 11:36:39","2016-04-04 11:36:39"
123,131,131,NULL,NULL,NULL,NULL,NULL,NULL,"2016-04-04 11:36:39","2016-04-04 11:36:39"
124,132,132,NULL,585,NULL,761,NULL,NULL,"2016-04-04 11:36:39","2016-04-04 11:36:39"
125,133,133,NULL,475,NULL,762,NULL,NULL,"2016-04-04 11:36:39","2016-04-04 11:36:39"
126,134,134,NULL,NULL,NULL,NULL,NULL,NULL,"2016-04-04 11:36:39","2016-04-04 11:36:39"
127,135,135,NULL,NULL,NULL,NULL,NULL,NULL,"2016-04-04 11:36:39","2016-04-04 11:36:39"
128,136,136,NULL,NULL,NULL,763,NULL,NULL,"2016-04-04 11:36:39","2016-04-04 11:36:39"
129,137,137,NULL,NULL,NULL,764,NULL,NULL,"2016-04-04 11:36:39","2016-04-04 11:36:39"
130,139,139,NULL,NULL,NULL,765,NULL,NULL,"2016-04-04 11:36:39","2016-04-04 11:36:39"
131,140,140,NULL,NULL,NULL,766,NULL,NULL,"2016-04-04 11:36:39","2016-04-04 11:36:39"
132,141,141,NULL,NULL,NULL,767,NULL,NULL,"2016-04-04 11:36:39","2016-04-04 11:36:39"
133,142,142,NULL,NULL,NULL,768,NULL,NULL,"2016-04-04 11:36:40","2016-04-04 11:36:40"
134,143,143,NULL,NULL,NULL,769,NULL,NULL,"2016-04-04 11:36:40","2016-04-04 11:36:40"
135,144,144,NULL,NULL,NULL,NULL,NULL,NULL,"2016-04-04 11:36:40","2016-04-04 11:36:40"
136,145,145,NULL,NULL,NULL,NULL,NULL,NULL,"2016-04-04 11:36:40","2016-04-04 11:36:40"
137,146,146,NULL,NULL,NULL,NULL,NULL,NULL,"2016-04-04 11:36:40","2016-04-04 11:36:40"
138,147,147,NULL,NULL,NULL,NULL,NULL,NULL,"2016-04-04 11:36:40","2016-04-04 11:36:40"
139,148,148,NULL,NULL,NULL,NULL,NULL,NULL,"2016-04-04 11:36:40","2016-04-04 11:36:40"
140,149,149,NULL,650,NULL,770,NULL,NULL,"2016-04-04 11:36:40","2016-04-04 11:36:40"
141,150,150,NULL,NULL,NULL,NULL,NULL,NULL,"2016-04-04 11:36:40","2016-04-04 11:36:40"
142,151,151,NULL,NULL,NULL,NULL,NULL,NULL,"2016-04-04 11:36:40","2016-04-04 11:36:40"
143,153,153,NULL,NULL,NULL,NULL,NULL,NULL,"2016-04-04 11:36:40","2016-04-04 11:36:40"
144,156,156,NULL,NULL,NULL,NULL,NULL,NULL,"2016-04-04 11:36:40","2016-04-04 11:36:40"
145,157,157,NULL,NULL,NULL,NULL,NULL,NULL,"2016-04-04 11:36:40","2016-04-04 11:36:40"
146,158,158,NULL,NULL,NULL,NULL,NULL,NULL,"2016-04-04 11:36:40","2016-04-04 11:36:40"
147,159,159,NULL,NULL,NULL,771,NULL,NULL,"2016-04-04 11:36:40","2016-04-04 11:36:40"
148,161,161,NULL,NULL,NULL,772,NULL,NULL,"2016-04-04 11:36:40","2016-04-04 11:36:40"
149,162,162,NULL,NULL,NULL,773,NULL,NULL,"2016-04-04 11:36:40","2016-04-04 11:36:40"
150,163,163,NULL,NULL,NULL,774,NULL,NULL,"2016-04-04 11:36:40","2016-04-04 11:36:40"
151,164,164,NULL,NULL,NULL,775,NULL,NULL,"2016-04-04 11:36:40","2016-04-04 11:36:40"
152,165,165,NULL,NULL,NULL,776,NULL,NULL,"2016-04-04 11:36:40","2016-04-04 11:36:40"
153,166,166,NULL,NULL,NULL,777,NULL,NULL,"2016-04-04 11:36:40","2016-04-04 11:36:40"
154,167,167,NULL,NULL,NULL,778,NULL,NULL,"2016-04-04 11:36:40","2016-04-04 11:36:40"
155,168,168,NULL,NULL,NULL,952,NULL,NULL,"2016-04-04 11:36:40","2016-04-04 11:36:40"
156,169,169,NULL,NULL,NULL,779,NULL,NULL,"2016-04-04 11:36:40","2016-04-04 11:36:40"
157,170,170,NULL,NULL,NULL,780,NULL,NULL,"2016-04-04 11:36:40","2016-04-04 11:36:40"
158,171,171,NULL,NULL,NULL,781,NULL,NULL,"2016-04-04 11:36:40","2016-04-04 11:36:40"
159,172,172,NULL,NULL,NULL,782,NULL,NULL,"2016-04-04 11:36:40","2016-04-04 11:36:40"
160,173,173,NULL,NULL,NULL,783,NULL,NULL,"2016-04-04 11:36:40","2016-04-04 11:36:40"
161,174,174,NULL,NULL,NULL,784,NULL,NULL,"2016-04-04 11:36:40","2016-04-04 11:36:40"
162,175,175,NULL,NULL,NULL,785,NULL,NULL,"2016-04-04 11:36:40","2016-04-04 11:36:40"
163,176,176,NULL,NULL,NULL,NULL,NULL,NULL,"2016-04-04 11:36:40","2016-04-04 11:36:40"
164,177,177,NULL,633,NULL,786,NULL,NULL,"2016-04-04 11:36:40","2016-04-04 11:36:40"
165,178,178,NULL,632,NULL,787,NULL,NULL,"2016-04-04 11:36:40","2016-04-04 11:36:40"
166,179,179,NULL,NULL,NULL,NULL,NULL,NULL,"2016-04-04 11:36:40","2016-04-04 11:36:40"
167,180,180,NULL,NULL,NULL,788,NULL,NULL,"2016-04-04 11:36:40","2016-04-04 11:36:40"
168,182,182,NULL,NULL,NULL,NULL,NULL,NULL,"2016-04-04 11:36:40","2016-04-04 11:36:40"
169,183,183,NULL,NULL,NULL,NULL,NULL,NULL,"2016-04-04 11:36:40","2016-04-04 11:36:40"
170,184,184,NULL,NULL,NULL,NULL,NULL,NULL,"2016-04-04 11:36:40","2016-04-04 11:36:40"
171,185,185,NULL,NULL,NULL,NULL,NULL,NULL,"2016-04-04 11:36:40","2016-04-04 11:36:40"
172,186,186,NULL,NULL,NULL,NULL,NULL,NULL,"2016-04-04 11:36:40","2016-04-04 11:36:40"
173,187,187,NULL,NULL,NULL,NULL,NULL,NULL,"2016-04-04 11:36:40","2016-04-04 11:36:40"
174,188,188,NULL,NULL,NULL,NULL,NULL,NULL,"2016-04-04 11:36:40","2016-04-04 11:36:40"
175,189,189,NULL,NULL,NULL,NULL,NULL,NULL,"2016-04-04 11:36:40","2016-04-04 11:36:40"
176,190,190,NULL,NULL,NULL,NULL,NULL,NULL,"2016-04-04 11:36:40","2016-04-04 11:36:40"
177,192,192,NULL,631,NULL,789,NULL,NULL,"2016-04-04 11:36:40","2016-04-04 11:36:40"
178,193,193,NULL,NULL,NULL,790,NULL,NULL,"2016-04-04 11:36:40","2016-04-04 11:36:40"
179,194,194,NULL,NULL,NULL,791,NULL,NULL,"2016-04-04 11:36:40","2016-04-04 11:36:40"
180,195,195,NULL,NULL,NULL,792,NULL,NULL,"2016-04-04 11:36:40","2016-04-04 11:36:40"
181,196,196,NULL,630,NULL,793,NULL,NULL,"2016-04-04 11:36:40","2016-04-04 11:36:40"
182,197,197,NULL,NULL,NULL,794,NULL,NULL,"2016-04-04 11:36:40","2016-04-04 11:36:40"
183,198,198,NULL,NULL,NULL,795,NULL,NULL,"2016-04-04 11:36:40","2016-04-04 11:36:40"
184,199,199,NULL,NULL,NULL,796,NULL,NULL,"2016-04-04 11:36:40","2016-04-04 11:36:40"
185,200,200,NULL,629,NULL,797,NULL,NULL,"2016-04-04 11:36:40","2016-04-04 11:36:40"
186,203,203,NULL,NULL,NULL,798,NULL,NULL,"2016-04-04 11:36:40","2016-04-04 11:36:40"
187,204,204,NULL,NULL,NULL,799,NULL,NULL,"2016-04-04 11:36:40","2016-04-04 11:36:40"
188,205,205,NULL,NULL,NULL,800,NULL,NULL,"2016-04-04 11:36:40","2016-04-04 11:36:40"
189,206,206,NULL,NULL,NULL,801,NULL,NULL,"2016-04-04 11:36:40","2016-04-04 11:36:40"
190,207,207,NULL,NULL,NULL,802,NULL,NULL,"2016-04-04 11:36:40","2016-04-04 11:36:40"
191,209,211,NULL,NULL,NULL,NULL,NULL,NULL,"2016-04-04 11:36:40","2016-04-04 11:36:40"
192,211,213,NULL,627,NULL,804,NULL,NULL,"2016-04-04 11:36:40","2016-04-04 11:36:40"
193,212,214,NULL,NULL,NULL,805,NULL,NULL,"2016-04-04 11:36:40","2016-04-04 11:36:40"
194,213,215,NULL,NULL,NULL,NULL,NULL,NULL,"2016-04-04 11:36:40","2016-04-04 11:36:40"
195,214,216,NULL,626,NULL,806,NULL,NULL,"2016-04-04 11:36:40","2016-04-04 11:36:40"
196,215,217,NULL,NULL,NULL,807,NULL,NULL,"2016-04-04 11:36:40","2016-04-04 11:36:40"
197,216,218,NULL,NULL,NULL,NULL,NULL,NULL,"2016-04-04 11:36:40","2016-04-04 11:36:40"
198,218,220,NULL,NULL,NULL,808,NULL,NULL,"2016-04-04 11:36:40","2016-04-04 11:36:40"
199,219,221,NULL,NULL,NULL,NULL,NULL,NULL,"2016-04-04 11:36:40","2016-04-04 11:36:40"
200,220,222,NULL,NULL,NULL,NULL,NULL,NULL,"2016-04-04 11:36:40","2016-04-04 11:36:40"
201,221,223,NULL,625,NULL,809,NULL,NULL,"2016-04-04 11:36:40","2016-04-04 11:36:40"
202,222,224,NULL,NULL,NULL,NULL,NULL,NULL,"2016-04-04 11:36:40","2016-04-04 11:36:40"
203,223,225,NULL,466,NULL,810,NULL,NULL,"2016-04-04 11:36:40","2016-04-04 11:36:40"
204,224,226,NULL,469,NULL,NULL,NULL,NULL,"2016-04-04 11:36:40","2016-04-04 11:36:40"
205,225,227,NULL,624,NULL,811,NULL,NULL,"2016-04-04 11:36:40","2016-04-04 11:36:40"
206,226,228,NULL,623,NULL,812,NULL,NULL,"2016-04-04 11:36:40","2016-04-04 11:36:40"
207,227,229,NULL,622,NULL,813,NULL,NULL,"2016-04-04 11:36:40","2016-04-04 11:36:40"
208,228,230,NULL,NULL,NULL,NULL,NULL,NULL,"2016-04-04 11:36:40","2016-04-04 11:36:40"
209,229,231,NULL,621,NULL,814,NULL,NULL,"2016-04-04 11:36:40","2016-04-04 11:36:40"
210,230,232,NULL,620,NULL,815,NULL,NULL,"2016-04-04 11:36:40","2016-04-04 11:36:40"
211,231,233,NULL,619,NULL,816,NULL,NULL,"2016-04-04 11:36:40","2016-04-04 11:36:40"
212,232,234,NULL,654,NULL,NULL,NULL,NULL,"2016-04-04 11:36:40","2016-04-04 11:36:40"
213,233,235,NULL,NULL,NULL,NULL,NULL,NULL,"2016-04-04 11:36:40","2016-04-04 11:36:40"
214,234,236,NULL,481,NULL,817,NULL,NULL,"2016-04-04 11:36:40","2016-04-04 11:36:40"
215,235,237,NULL,NULL,NULL,NULL,NULL,NULL,"2016-04-04 11:36:40","2016-04-04 11:36:40"
216,236,238,NULL,618,NULL,NULL,NULL,NULL,"2016-04-04 11:36:40","2016-04-04 11:36:40"
217,237,239,NULL,NULL,NULL,NULL,NULL,NULL,"2016-04-04 11:36:40","2016-04-04 11:36:40"
218,238,240,NULL,NULL,NULL,NULL,NULL,NULL,"2016-04-04 11:36:40","2016-04-04 11:36:40"
219,239,241,NULL,NULL,NULL,818,NULL,NULL,"2016-04-04 11:36:40","2016-04-04 11:36:40"
220,240,242,NULL,NULL,NULL,NULL,NULL,NULL,"2016-04-04 11:36:40","2016-04-04 11:36:40"
221,241,243,NULL,617,NULL,819,NULL,NULL,"2016-04-04 11:36:40","2016-04-04 11:36:40"
222,242,244,NULL,616,NULL,820,NULL,NULL,"2016-04-04 11:36:40","2016-04-04 11:36:40"
223,243,245,NULL,615,NULL,NULL,NULL,NULL,"2016-04-04 11:36:40","2016-04-04 11:36:40"
224,244,246,NULL,614,NULL,821,NULL,NULL,"2016-04-04 11:36:40","2016-04-04 11:36:40"
225,245,247,NULL,613,NULL,953,NULL,NULL,"2016-04-04 11:36:40","2016-04-04 11:36:40"
226,245,247,NULL,613,NULL,953,NULL,NULL,"2016-04-04 11:36:40","2016-04-04 11:36:40"
227,245,247,NULL,613,NULL,953,NULL,NULL,"2016-04-04 11:36:40","2016-04-04 11:36:40"
228,247,249,NULL,612,NULL,822,NULL,NULL,"2016-04-04 11:36:40","2016-04-04 11:36:40"
229,248,250,NULL,465,NULL,823,NULL,NULL,"2016-04-04 11:36:40","2016-04-04 11:36:40"
230,249,251,NULL,611,NULL,824,NULL,NULL,"2016-04-04 11:36:40","2016-04-04 11:36:40"
231,250,252,NULL,610,NULL,825,NULL,NULL,"2016-04-04 11:36:40","2016-04-04 11:36:40"
232,251,253,NULL,484,NULL,954,NULL,NULL,"2016-04-04 11:36:40","2016-04-04 11:36:40"
233,252,254,NULL,486,NULL,826,NULL,NULL,"2016-04-04 11:36:40","2016-04-04 11:36:40"
234,253,255,NULL,464,NULL,827,NULL,NULL,"2016-04-04 11:36:40","2016-04-04 11:36:40"
235,254,256,NULL,NULL,NULL,NULL,NULL,NULL,"2016-04-04 11:36:40","2016-04-04 11:36:40"
236,255,257,NULL,463,NULL,828,NULL,NULL,"2016-04-04 11:36:40","2016-04-04 11:36:40"
237,256,258,NULL,NULL,NULL,829,NULL,NULL,"2016-04-04 11:36:40","2016-04-04 11:36:40"
238,256,258,NULL,NULL,NULL,829,NULL,NULL,"2016-04-04 11:36:40","2016-04-04 11:36:40"
239,257,259,NULL,NULL,NULL,NULL,NULL,NULL,"2016-04-04 11:36:40","2016-04-04 11:36:40"
240,259,261,NULL,NULL,NULL,NULL,NULL,NULL,"2016-04-04 11:36:40","2016-04-04 11:36:40"
241,260,262,NULL,457,NULL,831,NULL,NULL,"2016-04-04 11:36:40","2016-04-04 11:36:40"
242,261,263,NULL,456,NULL,832,NULL,NULL,"2016-04-04 11:36:40","2016-04-04 11:36:40"
243,262,264,NULL,455,NULL,833,NULL,NULL,"2016-04-04 11:36:40","2016-04-04 11:36:40"
244,263,265,NULL,453,NULL,834,NULL,NULL,"2016-04-04 11:36:40","2016-04-04 11:36:40"
245,264,266,NULL,451,NULL,955,NULL,NULL,"2016-04-04 11:36:40","2016-04-04 11:36:40"
246,265,267,NULL,450,NULL,835,NULL,NULL,"2016-04-04 11:36:40","2016-04-04 11:36:40"
247,266,268,NULL,449,NULL,836,NULL,NULL,"2016-04-04 11:36:40","2016-04-04 11:36:40"
248,267,269,NULL,447,NULL,837,NULL,NULL,"2016-04-04 11:36:40","2016-04-04 11:36:40"
249,268,270,NULL,NULL,NULL,NULL,NULL,NULL,"2016-04-04 11:36:40","2016-04-04 11:36:40"
250,269,271,NULL,444,NULL,838,NULL,NULL,"2016-04-04 11:36:40","2016-04-04 11:36:40"
251,270,272,NULL,442,NULL,839,NULL,NULL,"2016-04-04 11:36:40","2016-04-04 11:36:40"
252,271,273,NULL,440,NULL,840,NULL,NULL,"2016-04-04 11:36:40","2016-04-04 11:36:40"
253,272,274,NULL,NULL,NULL,NULL,NULL,NULL,"2016-04-04 11:36:40","2016-04-04 11:36:40"
254,273,275,NULL,437,NULL,841,NULL,NULL,"2016-04-04 11:36:40","2016-04-04 11:36:40"
255,274,276,NULL,569,NULL,842,NULL,NULL,"2016-04-04 11:36:40","2016-04-04 11:36:40"
256,275,277,NULL,434,NULL,843,NULL,NULL,"2016-04-04 11:36:40","2016-04-04 11:36:40"
257,276,278,NULL,432,NULL,844,NULL,NULL,"2016-04-04 11:36:40","2016-04-04 11:36:40"
258,277,279,NULL,431,NULL,845,NULL,NULL,"2016-04-04 11:36:40","2016-04-04 11:36:40"
259,278,280,NULL,NULL,NULL,NULL,NULL,NULL,"2016-04-04 11:36:40","2016-04-04 11:36:40"
260,279,281,NULL,NULL,NULL,NULL,NULL,NULL,"2016-04-04 11:36:40","2016-04-04 11:36:40"
261,280,282,NULL,568,NULL,846,NULL,NULL,"2016-04-04 11:36:40","2016-04-04 11:36:40"
262,281,283,NULL,NULL,NULL,847,NULL,NULL,"2016-04-04 11:36:40","2016-04-04 11:36:40"
263,282,284,NULL,485,NULL,848,NULL,NULL,"2016-04-04 11:36:40","2016-04-04 11:36:40"
264,283,285,NULL,566,NULL,849,NULL,NULL,"2016-04-04 11:36:40","2016-04-04 11:36:40"
265,284,286,NULL,NULL,NULL,NULL,NULL,NULL,"2016-04-04 11:36:40","2016-04-04 11:36:40"
266,285,287,NULL,565,NULL,850,NULL,NULL,"2016-04-04 11:36:40","2016-04-04 11:36:40"
267,286,288,NULL,564,NULL,851,NULL,NULL,"2016-04-04 11:36:40","2016-04-04 11:36:40"
268,287,289,NULL,563,NULL,852,NULL,NULL,"2016-04-04 11:36:40","2016-04-04 11:36:40"
269,288,290,NULL,NULL,NULL,NULL,NULL,NULL,"2016-04-04 11:36:40","2016-04-04 11:36:40"
270,290,292,NULL,558,NULL,854,NULL,NULL,"2016-04-04 11:36:40","2016-04-04 11:36:40"
271,291,293,NULL,NULL,NULL,NULL,NULL,NULL,"2016-04-04 11:36:40","2016-04-04 11:36:40"
272,292,294,NULL,552,NULL,855,NULL,NULL,"2016-04-04 11:36:40","2016-04-04 11:36:40"
273,293,296,NULL,NULL,NULL,NULL,NULL,NULL,"2016-04-04 11:36:40","2016-04-04 11:36:40"
274,294,297,NULL,NULL,NULL,857,NULL,NULL,"2016-04-04 11:36:40","2016-04-04 11:36:40"
275,295,298,NULL,NULL,NULL,858,NULL,NULL,"2016-04-04 11:36:40","2016-04-04 11:36:40"
276,296,299,NULL,NULL,NULL,859,NULL,NULL,"2016-04-04 11:36:40","2016-04-04 11:36:40"
277,297,300,NULL,538,NULL,860,NULL,NULL,"2016-04-04 11:36:40","2016-04-04 11:36:40"
278,298,301,NULL,NULL,NULL,861,NULL,NULL,"2016-04-04 11:36:40","2016-04-04 11:36:40"
279,299,302,NULL,NULL,NULL,NULL,NULL,NULL,"2016-04-04 11:36:40","2016-04-04 11:36:40"
280,300,303,NULL,NULL,NULL,NULL,NULL,NULL,"2016-04-04 11:36:40","2016-04-04 11:36:40"
281,301,304,NULL,529,NULL,862,NULL,NULL,"2016-04-04 11:36:40","2016-04-04 11:36:40"
282,302,305,NULL,527,NULL,863,NULL,NULL,"2016-04-04 11:36:40","2016-04-04 11:36:40"
283,303,306,NULL,523,NULL,864,NULL,NULL,"2016-04-04 11:36:40","2016-04-04 11:36:40"
284,305,308,NULL,NULL,NULL,865,NULL,NULL,"2016-04-04 11:36:40","2016-04-04 11:36:40"
285,306,309,NULL,519,NULL,866,NULL,NULL,"2016-04-04 11:36:40","2016-04-04 11:36:40"
286,307,310,NULL,517,NULL,867,NULL,NULL,"2016-04-04 11:36:40","2016-04-04 11:36:40"
287,308,311,NULL,473,NULL,868,NULL,NULL,"2016-04-04 11:36:40","2016-04-04 11:36:40"
288,309,312,NULL,507,NULL,869,NULL,NULL,"2016-04-04 11:36:40","2016-04-04 11:36:40"
289,310,313,NULL,499,NULL,NULL,NULL,NULL,"2016-04-04 11:36:40","2016-04-04 11:36:40"
290,311,314,NULL,NULL,NULL,870,NULL,NULL,"2016-04-04 11:36:40","2016-04-04 11:36:40"
291,312,315,NULL,470,NULL,NULL,NULL,NULL,"2016-04-04 11:36:40","2016-04-04 11:36:40"
292,314,317,NULL,488,NULL,871,NULL,NULL,"2016-04-04 11:36:40","2016-04-04 11:36:40"
293,315,318,NULL,NULL,NULL,NULL,NULL,NULL,"2016-04-04 11:36:40","2016-04-04 11:36:40"
294,316,319,NULL,NULL,NULL,872,NULL,NULL,"2016-04-04 11:36:40","2016-04-04 11:36:40"
295,317,320,NULL,NULL,NULL,NULL,NULL,NULL,"2016-04-04 11:36:40","2016-04-04 11:36:40"
296,318,321,NULL,NULL,NULL,NULL,NULL,NULL,"2016-04-04 11:36:40","2016-04-04 11:36:40"
297,319,322,NULL,NULL,NULL,NULL,NULL,NULL,"2016-04-04 11:36:40","2016-04-04 11:36:40"
298,320,323,NULL,NULL,NULL,NULL,NULL,NULL,"2016-04-04 11:36:40","2016-04-04 11:36:40"
299,321,324,NULL,NULL,NULL,NULL,NULL,NULL,"2016-04-04 11:36:40","2016-04-04 11:36:40"
300,322,325,NULL,NULL,NULL,NULL,NULL,NULL,"2016-04-04 11:36:40","2016-04-04 11:36:40"
301,323,326,NULL,NULL,NULL,NULL,NULL,NULL,"2016-04-04 11:36:40","2016-04-04 11:36:40"
302,324,327,NULL,NULL,NULL,NULL,NULL,NULL,"2016-04-04 11:36:40","2016-04-04 11:36:40"
303,325,328,NULL,NULL,NULL,NULL,NULL,NULL,"2016-04-04 11:36:40","2016-04-04 11:36:40"
304,326,329,NULL,NULL,NULL,NULL,NULL,NULL,"2016-04-04 11:36:40","2016-04-04 11:36:40"
305,327,330,NULL,NULL,NULL,NULL,NULL,NULL,"2016-04-04 11:36:40","2016-04-04 11:36:40"
306,328,331,NULL,NULL,NULL,NULL,NULL,NULL,"2016-04-04 11:36:40","2016-04-04 11:36:40"
307,329,332,NULL,NULL,NULL,873,NULL,NULL,"2016-04-04 11:36:40","2016-04-04 11:36:40"
308,330,333,NULL,NULL,NULL,NULL,NULL,NULL,"2016-04-04 11:36:40","2016-04-04 11:36:40"
309,331,334,NULL,NULL,NULL,NULL,NULL,NULL,"2016-04-04 11:36:40","2016-04-04 11:36:40"
310,332,335,NULL,NULL,NULL,874,NULL,NULL,"2016-04-04 11:36:40","2016-04-04 11:36:40"
311,333,336,NULL,NULL,NULL,NULL,NULL,NULL,"2016-04-04 11:36:40","2016-04-04 11:36:40"
312,334,337,NULL,NULL,NULL,NULL,NULL,NULL,"2016-04-04 11:36:40","2016-04-04 11:36:40"
313,335,338,NULL,NULL,NULL,NULL,NULL,NULL,"2016-04-04 11:36:40","2016-04-04 11:36:40"
314,336,339,NULL,477,NULL,912,NULL,NULL,"2016-04-04 11:36:40","2016-04-04 11:36:40"
315,337,340,NULL,540,NULL,875,NULL,NULL,"2016-04-04 11:36:40","2016-04-04 11:36:40"
316,338,341,NULL,539,NULL,876,NULL,NULL,"2016-04-04 11:36:40","2016-04-04 11:36:40"
317,339,342,NULL,NULL,NULL,877,NULL,NULL,"2016-04-04 11:36:40","2016-04-04 11:36:40"
318,340,343,NULL,535,NULL,878,NULL,NULL,"2016-04-04 11:36:40","2016-04-04 11:36:40"
319,341,344,NULL,NULL,NULL,NULL,NULL,NULL,"2016-04-04 11:36:40","2016-04-04 11:36:40"
320,342,345,NULL,528,NULL,879,NULL,NULL,"2016-04-04 11:36:40","2016-04-04 11:36:40"
321,343,346,NULL,NULL,NULL,880,NULL,NULL,"2016-04-04 11:36:40","2016-04-04 11:36:40"
322,344,347,NULL,522,NULL,881,NULL,NULL,"2016-04-04 11:36:40","2016-04-04 11:36:40"
323,345,348,NULL,NULL,NULL,NULL,NULL,NULL,"2016-04-04 11:36:40","2016-04-04 11:36:40"
324,346,349,NULL,515,NULL,NULL,NULL,NULL,"2016-04-04 11:36:40","2016-04-04 11:36:40"
325,348,351,NULL,511,NULL,NULL,NULL,NULL,"2016-04-04 11:36:40","2016-04-04 11:36:40"
326,350,353,NULL,NULL,NULL,NULL,NULL,NULL,"2016-04-04 11:36:40","2016-04-04 11:36:40"
327,351,354,NULL,NULL,NULL,NULL,NULL,NULL,"2016-04-04 11:36:40","2016-04-04 11:36:40"
328,353,356,NULL,503,NULL,882,NULL,NULL,"2016-04-04 11:36:40","2016-04-04 11:36:40"
329,354,357,NULL,NULL,NULL,883,NULL,NULL,"2016-04-04 11:36:40","2016-04-04 11:36:40"
330,355,358,NULL,NULL,NULL,884,NULL,NULL,"2016-04-04 11:36:40","2016-04-04 11:36:40"
331,356,359,NULL,NULL,NULL,885,NULL,NULL,"2016-04-04 11:36:40","2016-04-04 11:36:40"
332,357,360,NULL,NULL,NULL,NULL,NULL,NULL,"2016-04-04 11:36:40","2016-04-04 11:36:40"
333,359,362,NULL,495,NULL,886,NULL,NULL,"2016-04-04 11:36:40","2016-04-04 11:36:40"
334,359,362,NULL,495,NULL,886,NULL,NULL,"2016-04-04 11:36:40","2016-04-04 11:36:40"
335,360,363,NULL,468,NULL,887,NULL,NULL,"2016-04-04 11:36:40","2016-04-04 11:36:40"
336,361,364,NULL,493,NULL,956,NULL,NULL,"2016-04-04 11:36:40","2016-04-04 11:36:40"
337,362,365,NULL,490,NULL,957,NULL,NULL,"2016-04-04 11:36:40","2016-04-04 11:36:40"
338,362,365,NULL,490,NULL,957,NULL,NULL,"2016-04-04 11:36:40","2016-04-04 11:36:40"
339,362,365,NULL,490,NULL,957,NULL,NULL,"2016-04-04 11:36:40","2016-04-04 11:36:40"
340,363,366,NULL,609,NULL,NULL,NULL,NULL,"2016-04-04 11:36:40","2016-04-04 11:36:40"
341,364,367,NULL,608,NULL,888,NULL,NULL,"2016-04-04 11:36:40","2016-04-04 11:36:40"
342,365,368,NULL,607,NULL,889,NULL,NULL,"2016-04-04 11:36:40","2016-04-04 11:36:40"
343,366,369,NULL,606,NULL,958,NULL,NULL,"2016-04-04 11:36:40","2016-04-04 11:36:40"
344,367,370,NULL,605,NULL,NULL,NULL,NULL,"2016-04-04 11:36:40","2016-04-04 11:36:40"
345,368,371,NULL,476,NULL,890,NULL,NULL,"2016-04-04 11:36:40","2016-04-04 11:36:40"
346,369,372,NULL,604,NULL,913,NULL,NULL,"2016-04-04 11:36:40","2016-04-04 11:36:40"
347,370,373,NULL,603,NULL,914,NULL,NULL,"2016-04-04 11:36:40","2016-04-04 11:36:40"
348,371,374,NULL,602,NULL,915,NULL,NULL,"2016-04-04 11:36:40","2016-04-04 11:36:40"
349,372,375,NULL,601,NULL,916,NULL,NULL,"2016-04-04 11:36:40","2016-04-04 11:36:40"
350,373,376,NULL,600,NULL,917,NULL,NULL,"2016-04-04 11:36:40","2016-04-04 11:36:40"
351,374,377,NULL,599,NULL,918,NULL,NULL,"2016-04-04 11:36:40","2016-04-04 11:36:40"
352,375,378,NULL,598,NULL,919,NULL,NULL,"2016-04-04 11:36:40","2016-04-04 11:36:40"
353,376,379,NULL,596,NULL,920,NULL,NULL,"2016-04-04 11:36:40","2016-04-04 11:36:40"
354,377,380,NULL,595,NULL,921,NULL,NULL,"2016-04-04 11:36:40","2016-04-04 11:36:40"
355,378,381,NULL,594,NULL,922,NULL,NULL,"2016-04-04 11:36:40","2016-04-04 11:36:40"
356,379,382,NULL,592,NULL,923,NULL,NULL,"2016-04-04 11:36:40","2016-04-04 11:36:40"
357,380,383,NULL,591,NULL,924,NULL,NULL,"2016-04-04 11:36:40","2016-04-04 11:36:40"
358,381,384,NULL,589,NULL,925,NULL,NULL,"2016-04-04 11:36:40","2016-04-04 11:36:40"
359,382,385,NULL,588,NULL,926,NULL,NULL,"2016-04-04 11:36:40","2016-04-04 11:36:40"
360,383,386,NULL,587,NULL,927,NULL,NULL,"2016-04-04 11:36:40","2016-04-04 11:36:40"
361,384,387,NULL,586,NULL,NULL,NULL,NULL,"2016-04-04 11:36:40","2016-04-04 11:36:40"
362,385,388,NULL,584,NULL,928,NULL,NULL,"2016-04-04 11:36:40","2016-04-04 11:36:40"
363,386,389,NULL,583,NULL,929,NULL,NULL,"2016-04-04 11:36:40","2016-04-04 11:36:40"
364,387,390,NULL,582,NULL,930,NULL,NULL,"2016-04-04 11:36:40","2016-04-04 11:36:40"
365,388,391,NULL,581,NULL,931,NULL,NULL,"2016-04-04 11:36:40","2016-04-04 11:36:40"
366,389,392,NULL,580,NULL,932,NULL,NULL,"2016-04-04 11:36:40","2016-04-04 11:36:40"
367,390,393,NULL,579,NULL,933,NULL,NULL,"2016-04-04 11:36:40","2016-04-04 11:36:40"
368,391,394,NULL,578,NULL,934,NULL,NULL,"2016-04-04 11:36:40","2016-04-04 11:36:40"
369,392,395,NULL,NULL,NULL,NULL,NULL,NULL,"2016-04-04 11:36:40","2016-04-04 11:36:40"
370,393,396,NULL,577,NULL,935,NULL,NULL,"2016-04-04 11:36:40","2016-04-04 11:36:40"
371,394,397,NULL,576,NULL,936,NULL,NULL,"2016-04-04 11:36:40","2016-04-04 11:36:40"
372,395,398,NULL,575,NULL,937,NULL,NULL,"2016-04-04 11:36:40","2016-04-04 11:36:40"
373,396,399,NULL,574,NULL,938,NULL,NULL,"2016-04-04 11:36:40","2016-04-04 11:36:40"
374,397,400,NULL,573,NULL,939,NULL,NULL,"2016-04-04 11:36:40","2016-04-04 11:36:40"
375,398,401,NULL,572,NULL,891,NULL,NULL,"2016-04-04 11:36:40","2016-04-04 11:36:40"
376,399,402,NULL,571,NULL,940,NULL,NULL,"2016-04-04 11:36:40","2016-04-04 11:36:40"
377,400,403,NULL,570,NULL,892,NULL,NULL,"2016-04-04 11:36:40","2016-04-04 11:36:40"
378,401,404,NULL,651,NULL,959,NULL,NULL,"2016-04-04 11:36:40","2016-04-04 11:36:40"
379,402,405,NULL,467,NULL,NULL,NULL,NULL,"2016-04-04 11:36:40","2016-04-04 11:36:40"
380,403,406,NULL,649,NULL,941,NULL,NULL,"2016-04-04 11:36:40","2016-04-04 11:36:40"
381,404,407,NULL,648,NULL,942,NULL,NULL,"2016-04-04 11:36:40","2016-04-04 11:36:40"
382,405,408,NULL,647,NULL,960,NULL,NULL,"2016-04-04 11:36:40","2016-04-04 11:36:40"
383,406,409,NULL,646,NULL,961,NULL,NULL,"2016-04-04 11:36:40","2016-04-04 11:36:40"
384,407,410,NULL,645,NULL,962,NULL,NULL,"2016-04-04 11:36:40","2016-04-04 11:36:40"
385,408,411,NULL,644,NULL,943,NULL,NULL,"2016-04-04 11:36:40","2016-04-04 11:36:40"
386,409,412,NULL,643,NULL,893,NULL,NULL,"2016-04-04 11:36:40","2016-04-04 11:36:40"
387,410,413,NULL,NULL,NULL,NULL,NULL,NULL,"2016-04-04 11:36:40","2016-04-04 11:36:40"
388,411,414,NULL,642,NULL,NULL,NULL,NULL,"2016-04-04 11:36:40","2016-04-04 11:36:40"
389,412,415,NULL,641,NULL,894,NULL,NULL,"2016-04-04 11:36:40","2016-04-04 11:36:40"
390,413,416,NULL,640,NULL,895,NULL,NULL,"2016-04-04 11:36:40","2016-04-04 11:36:40"
391,414,417,NULL,639,NULL,896,NULL,NULL,"2016-04-04 11:36:40","2016-04-04 11:36:40"
392,415,418,NULL,482,NULL,963,NULL,NULL,"2016-04-04 11:36:40","2016-04-04 11:36:40"
393,416,419,NULL,638,NULL,NULL,NULL,NULL,"2016-04-04 11:36:40","2016-04-04 11:36:40"
394,417,420,NULL,637,NULL,897,NULL,NULL,"2016-04-04 11:36:40","2016-04-04 11:36:40"
395,418,421,NULL,636,NULL,898,NULL,NULL,"2016-04-04 11:36:40","2016-04-04 11:36:40"
396,419,422,NULL,635,NULL,899,NULL,NULL,"2016-04-04 11:36:40","2016-04-04 11:36:40"
397,420,423,NULL,634,NULL,NULL,NULL,NULL,"2016-04-04 11:36:40","2016-04-04 11:36:40"
398,421,666,NULL,424,NULL,NULL,NULL,NULL,"2016-04-04 11:36:40","2016-04-04 11:36:40"
399,426,673,NULL,653,NULL,902,NULL,NULL,"2016-04-04 11:36:40","2016-04-04 11:36:40"
400,427,655,NULL,656,NULL,901,NULL,NULL,"2016-04-04 11:36:40","2016-04-04 11:36:40"
401,431,675,NULL,NULL,NULL,NULL,NULL,NULL,"2016-04-04 11:36:40","2016-04-04 11:36:40"
402,432,676,NULL,NULL,NULL,903,NULL,NULL,"2016-04-04 11:36:40","2016-04-04 11:36:40"
403,433,677,NULL,NULL,NULL,904,NULL,NULL,"2016-04-04 11:36:40","2016-04-04 11:36:40"
404,434,678,NULL,NULL,NULL,905,NULL,NULL,"2016-04-04 11:36:40","2016-04-04 11:36:40"
405,436,680,NULL,NULL,NULL,906,NULL,NULL,"2016-04-04 11:36:40","2016-04-04 11:36:40"
406,437,909,NULL,NULL,NULL,944,NULL,NULL,"2016-04-04 11:36:40","2016-04-04 11:36:40"
407,439,911,NULL,NULL,NULL,964,NULL,NULL,"2016-04-04 11:36:40","2016-04-04 11:36:40"
408,440,965,NULL,NULL,NULL,967,NULL,NULL,"2016-04-04 11:36:40","2016-04-04 11:36:40"
409,442,291,NULL,NULL,NULL,970,NULL,NULL,"2016-04-04 11:36:40","2016-04-04 11:36:40"
410,444,212,NULL,NULL,NULL,972,NULL,NULL,"2016-04-04 11:36:40","2016-04-04 11:36:40"
411,445,260,NULL,NULL,NULL,971,NULL,NULL,"2016-04-04 11:36:40","2016-04-04 11:36:40"
412,446,652,NULL,NULL,NULL,973,NULL,NULL,"2016-04-04 11:36:40","2016-04-04 11:36:40"
413,447,55,NULL,NULL,NULL,974,NULL,NULL,"2016-04-04 11:36:40","2016-04-04 11:36:40"
