1,"auto_approve_transfers","currency_limit",{"max_amount": 100},true
2,"auto_approve_transfers","request_approved_within",{"window_in_days": 7},true
3,"auto_approve_transfers","withdrawals_using_same_payout_method",{"successful_withdrawals": 3},true
4,"auto_approve_transfers","not_currently_flagged",{"flag": "suspicious"},true
5,"auto_approve_transfers","not_multiple_occupancy_payoneer_unless_vip",{},true
6,"auto_approve_transfers","enabled_2fa_unless_vip",{},true
7,"auto_approve_transfers","transfer_login_match_previous",{"number_of_previous_logins": 5},true
8,"test","add_5",{"value": 5},true
9,"test","div_5",{"value": 5},false
10,"test","mult_5",{"value": 5},true
11,"auto_approve_transfers","account_not_held",{},true
12,"tax_blocking","current_year_earnings_threshold",{"current_year_threshold": 5.0},true
13,"tax_blocking","past_years_earnings_threshold",{"previous_evaluation_years": {"2020": 5.0}},true
14,"us_tax_withholding","current_year_earnings_threshold",{"current_year_threshold": 5.0},true
