"1","73.16","USD","INR","2020-03-30 00:00:00",nil,"2020-03-30 00:00:00","2020-03-30 00:00:00"
"2","0.8425","USD","EUR","2020-09-17 0:00:00",nil,"2020-09-17 0:00:00","2020-09-17 0:00:00"
"3","0.6399","CAD","EUR","2020-09-17 0:00:00",nil,"2020-09-17 0:00:00","2020-09-17 0:00:00"
"4","1.0938","GBP","EUR","2020-09-17 0:00:00",nil,"2020-09-17 0:00:00","2020-09-17 0:00:00"
"5","0.6183","AUD","EUR","2020-09-17 0:00:00",nil,"2020-09-17 0:00:00","2020-09-17 0:00:00"
"6","0.0112","INR","EUR","2021-01-13 0:00:00",nil,"2021-01-13 0:00:00","2021-01-13 0:00:00"
