1,"primary_genre_name","equal","Classical",83,"2018-07-17 15:01:04","2018-08-22 18:05:07"
2,"primary_genre_name","equal","Audiobooks",48,"2018-08-22 18:06:06","2018-08-22 18:06:06"
3,"secondary_genre_name","equal","Audiobooks",48,"2018-08-22 18:06:06","2018-08-22 18:06:06"
4,"primary_genre_name","equal","Comedy",48,"2018-08-22 18:06:06","2018-08-22 18:06:06"
5,"secondary_genre_name","equal","Comedy",48,"2018-08-22 18:06:06","2018-08-22 18:06:06"
6,"primary_genre_name","equal","Spoken Word",48,"2018-08-22 18:06:06","2018-08-22 18:06:06"
7,"secondary_genre_name","equal","Spoken Word",48,"2018-08-22 18:06:06","2018-08-22 18:06:06"
8,"primary_genre_name","equal","Fitness & Workout",48,"2018-08-22 18:06:06","2018-08-22 18:06:06"
9,"secondary_genre_name","equal","Fitness & Workout",48,"2018-08-22 18:06:06","2018-08-22 18:06:06"
10,"primary_genre_name","equal","Karaoke",48,"2018-08-22 18:06:06","2018-08-22 18:06:06"
11,"secondary_genre_name","equal","Karaoke",48,"2018-08-22 18:06:06","2018-08-22 18:06:06"
12,"album_name","contains","Nature Sounds",48,"2018-08-22 18:07:15","2018-08-22 18:07:15"
13,"song_name","contains","Nature Sounds",48,"2018-08-22 18:07:15","2018-08-22 18:07:15"
14,"album_name","contains","Meditation",48,"2018-08-22 18:07:15","2018-08-22 18:07:15"
15,"song_name","contains","Meditation",48,"2018-08-22 18:07:15","2018-08-22 18:07:15"
16,"album_name","contains","Relaxation",48,"2018-08-22 18:07:15","2018-08-22 18:07:15"
17,"song_name","contains","Relaxation",48,"2018-08-22 18:07:15","2018-08-22 18:07:15"
18,"album_name","contains","Video Game",48,"2018-08-22 18:07:15","2018-08-22 18:07:15"
19,"song_name","contains","Video Game",48,"2018-08-22 18:07:15","2018-08-22 18:07:15"
20,"album_name","contains","Compilation",48,"2018-08-22 18:07:15","2018-08-22 18:07:15"
21,"song_name","contains","Compilation",48,"2018-08-22 18:07:15","2018-08-22 18:07:15"
22,"album_name","contains","Karaoke",48,"2018-08-22 18:07:15","2018-08-22 18:07:15"
23,"song_name","contains","Karaoke",48,"2018-08-22 18:07:15","2018-08-22 18:07:15"
24,"primary_genre_name","contains","Audiobooks",48,"2019-11-06 16:26:00","2019-11-06 16:26:00"
25,"primary_genre_name","contains","Comedy",48,"2019-11-06 16:26:00","2019-11-06 16:26:00"
26,"primary_genre_name","contains","Spoken",48,"2019-11-06 16:26:00","2019-11-06 16:26:00"
27,"primary_genre_name","contains","Fitness & Workout",48,"2019-11-06 16:26:00","2019-11-06 16:26:00"
28,"primary_genre_name","contains","Karaoke",48,"2019-11-06 16:26:00","2019-11-06 16:26:00"
29,"secondary_genre_name","contains","Audiobooks",48,"2019-11-06 16:26:00","2019-11-06 16:26:00"
30,"secondary_genre_name","contains","Comedy",48,"2019-11-06 16:26:00","2019-11-06 16:26:00"
31,"secondary_genre_name","contains","Spoken",48,"2019-11-06 16:26:00","2019-11-06 16:26:00"
32,"secondary_genre_name","contains","Fitness & Workout",48,"2019-11-06 16:26:00","2019-11-06 16:26:00"
33,"secondary_genre_name","contains","Karaoke",48,"2019-11-06 16:26:00","2019-11-06 16:26:00"
34,"album_type","equal","Ringtone",48,"2019-11-06 16:26:00","2019-11-06 16:26:00"
35,"song_name","contains","ASMR",48,"2019-12-04 15:20:00","2019-12-04 15:20:00"
36,"primary_genre_name","equal","Ambient",83,"2021-12-14 16:09:15","2021-12-14 16:09:15"
37,"primary_genre_name","equal","Ambient",48,"2021-12-14 16:09:15","2021-12-14 16:09:15"