1,"spotify_verified","2022-03-21 11:44:56.797536","2022-03-21 11:44:56.797536"
2,"apple_verified","2022-03-21 11:44:56.833781","2022-03-21 11:44:56.833781"
3,"youtube_oac","2022-03-21 11:44:56.854407","2022-03-21 11:44:56.854407"
4,"revenue_splits","2022-03-21 11:44:56.874768","2022-03-21 11:44:56.874768"
5,"rewards_classes","2022-03-21 11:44:56.893452","2022-03-21 11:44:56.893452"
6,"sales_report","2022-03-21 11:44:56.913501","2022-03-21 11:44:56.913501"
7,"premium_sales_report","2022-03-21 11:44:56.933790","2022-03-21 11:44:56.933790"
8,"trend_reports","2022-03-21 11:44:56.952024","2022-03-21 11:44:56.952024"
9,"cover_art","2022-03-21 11:44:56.971476","2022-03-21 11:44:56.971476"
10,"scheduled_release","2022-03-21 11:44:56.994417","2022-03-21 11:44:56.994417"
11,"partnerships","2022-03-21 11:44:57.012107","2022-03-21 11:44:57.012107"
12,"promotional_opportunities","2022-03-21 11:44:57.069782","2022-03-21 11:44:57.069782"
13,"pro_panels","2022-03-21 11:44:57.088366","2022-03-21 11:44:57.088366"
14,"custom_label","2022-03-21 11:44:57.108541","2022-03-21 11:44:57.108541"
15,"upc","2022-03-21 11:44:57.132298","2022-03-21 11:44:57.132298"
16,"territory_restrictions","2022-03-21 11:44:57.154027","2022-03-21 11:44:57.154027"
17,"recording_location","2022-03-21 11:44:57.174376","2022-03-21 11:44:57.174376"
18,"buy_additional_artists","2022-03-21 11:44:57.194714","2022-03-21 11:44:57.194714"
19,"isrc","2022-03-21 11:44:57.211969","2022-03-21 11:44:57.211969"
20,"store_automator","2022-03-21 11:44:57.233234","2022-03-21 11:44:57.233234"
21,"store_expander","2022-03-21 11:44:57.252390","2022-03-21 11:44:57.252390"
22,"ringtones","2022-03-21 11:44:57.271363","2022-03-21 11:44:57.271363"
23,"splits_collaborator","2022-11-29 10:46:16.263573","2022-11-29 10:46:16.263573"
