1,"starter","TuneCore Fan Reviews Starter Report",40,5,133,"2014-07-17 08:31:28","2014-07-17 08:31:28"
2,"enhanced","TuneCore Fan Reviews Enhanced Report",100,5,134,"2014-07-17 08:31:28","2014-07-17 08:31:28"
3,"premium","TuneCore Fan Reviews Premium Report",225,5,135,"2014-07-17 08:31:28","2014-07-17 08:31:28"
4,"starter","TuneCore Fan Reviews Starter Report",40,5,136,"2014-07-17 08:31:28","2014-07-17 08:31:28"
5,"enhanced","TuneCore Fan Reviews Enhanced Report",100,5,137,"2014-07-17 08:31:28","2014-07-17 08:31:28"
6,"premium","TuneCore Fan Reviews Premium Report",225,5,138,"2014-07-17 08:31:28","2014-07-17 08:31:28"
7,"starter","TuneCore Fan Reviews Starter Report",40,5,188,"2015-08-25 15:37:03","2015-08-25 15:37:03"
8,"enhanced","TuneCore Fan Reviews Enhanced Report",100,5,189,"2015-08-25 15:37:03","2015-08-25 15:37:03"
9,"premium","TuneCore Fan Reviews Premium Report",225,5,190,"2015-08-25 15:37:03","2015-08-25 15:37:03"
10,"starter","TuneCore Fan Reviews Starter Report",40,5,230,"2015-11-03 12:49:31","2015-11-03 12:49:31"
11,"enhanced","TuneCore Fan Reviews Enhanced Report",100,5,231,"2015-11-03 12:49:31","2015-11-03 12:49:31"
12,"premium","TuneCore Fan Reviews Premium Report",225,5,232,"2015-11-03 12:49:31","2015-11-03 12:49:31"
13,"starter","TrackSmarts Starter Report",40,5,317,"2016-03-11 12:22:33","2016-03-11 12:22:33"
14,"enhanced","TrackSmarts Enhanced Report",100,5,318,"2016-03-11 12:22:33","2016-03-11 12:22:33"
15,"premium","TrackSmarts Premium Report",225,5,319,"2016-03-11 12:22:33","2016-03-11 12:22:33"
16,"starter","TrackSmarts Starter Report",40,5,357,"2016-09-27 13:46:04","2016-09-27 13:46:04"
17,"enhanced","TrackSmarts Enhanced Report",100,5,358,"2016-09-27 13:46:04","2016-09-27 13:46:04"
18,"premium","TrackSmarts Premium Report",225,5,359,"2016-09-27 13:46:04","2016-09-27 13:46:04"
19,"starter","TrackSmarts Starter Report",40,5,396,"2016-11-15 11:46:37","2016-11-15 11:46:37"
20,"enhanced","TrackSmarts Enhanced Report",100,5,397,"2016-11-15 11:46:37","2016-11-15 11:46:37"
21,"premium","TrackSmarts Premium Report",225,5,398,"2016-11-15 11:46:37","2016-11-15 11:46:37"
