1,15,1,"2009-04-20 16:50:14","2009-04-20 16:50:14"
2,15,2,"2009-04-20 16:50:14","2009-04-20 16:50:14"
3,15,3,"2009-04-20 16:50:14","2009-04-20 16:50:14"
4,15,4,"2009-04-20 16:50:14","2009-04-20 16:50:14"
5,15,5,"2009-04-20 16:50:14","2009-04-20 16:50:14"
6,15,6,"2009-04-20 16:50:14","2009-04-20 16:50:14"
7,15,7,"2009-04-20 16:50:14","2009-04-20 16:50:14"
8,15,8,"2009-04-20 16:50:14","2009-04-20 16:50:14"
9,15,9,"2009-04-20 16:50:14","2009-04-20 16:50:14"
10,15,10,"2009-04-20 16:50:14","2009-04-20 16:50:14"
11,15,11,"2009-04-20 16:50:14","2009-04-20 16:50:14"
12,15,12,"2009-04-20 16:50:14","2009-04-20 16:50:14"
13,15,13,"2009-04-20 16:50:14","2009-04-20 16:50:14"
14,15,14,"2009-04-20 16:50:14","2009-04-20 16:50:14"
15,15,15,"2009-04-20 16:50:14","2009-04-20 16:50:14"
16,15,16,"2009-04-20 16:50:14","2009-04-20 16:50:14"
17,15,17,"2009-04-20 16:50:14","2009-04-20 16:50:14"
18,15,18,"2009-04-20 16:50:14","2009-04-20 16:50:14"
19,15,19,"2009-04-20 16:50:14","2009-04-20 16:50:14"
20,15,20,"2009-04-20 16:50:14","2009-04-20 16:50:14"
21,15,21,"2009-04-20 16:50:14","2009-04-20 16:50:14"
22,15,22,"2009-04-20 16:50:14","2009-04-20 16:50:14"
23,15,23,"2009-04-20 16:50:14","2009-04-20 16:50:14"
24,15,24,"2009-04-20 16:50:14","2009-04-20 16:50:14"
25,15,26,"2009-04-20 16:50:14","2009-04-20 16:50:14"
26,15,27,"2009-04-20 16:50:14","2009-04-20 16:50:14"
27,15,28,"2009-04-20 16:50:14","2009-04-20 16:50:14"
28,15,29,"2009-04-20 16:50:14","2009-04-20 16:50:14"
29,15,30,"2009-04-20 16:50:14","2009-04-20 16:50:14"
30,17,1,"2009-04-20 16:50:14","2009-04-20 16:50:14"
31,17,2,"2009-04-20 16:50:14","2009-04-20 16:50:14"
32,17,3,"2009-04-20 16:50:14","2009-04-20 16:50:14"
33,17,4,"2009-04-20 16:50:14","2009-04-20 16:50:14"
34,17,5,"2009-04-20 16:50:14","2009-04-20 16:50:14"
35,17,6,"2009-04-20 16:50:14","2009-04-20 16:50:14"
36,17,7,"2009-04-20 16:50:14","2009-04-20 16:50:14"
37,17,8,"2009-04-20 16:50:14","2009-04-20 16:50:14"
38,17,9,"2009-04-20 16:50:14","2009-04-20 16:50:14"
39,17,10,"2009-04-20 16:50:14","2009-04-20 16:50:14"
40,17,11,"2009-04-20 16:50:14","2009-04-20 16:50:14"
41,17,12,"2009-04-20 16:50:14","2009-04-20 16:50:14"
42,17,13,"2009-04-20 16:50:14","2009-04-20 16:50:14"
43,17,14,"2009-04-20 16:50:14","2009-04-20 16:50:14"
44,17,15,"2009-04-20 16:50:14","2009-04-20 16:50:14"
45,17,16,"2009-04-20 16:50:14","2009-04-20 16:50:14"
46,17,17,"2009-04-20 16:50:14","2009-04-20 16:50:14"
47,17,18,"2009-04-20 16:50:14","2009-04-20 16:50:14"
48,17,19,"2009-04-20 16:50:14","2009-04-20 16:50:14"
49,17,20,"2009-04-20 16:50:14","2009-04-20 16:50:14"
50,17,21,"2009-04-20 16:50:14","2009-04-20 16:50:14"
51,17,22,"2009-04-20 16:50:14","2009-04-20 16:50:14"
52,17,23,"2009-04-20 16:50:14","2009-04-20 16:50:14"
53,17,24,"2009-04-20 16:50:14","2009-04-20 16:50:14"
54,17,26,"2009-04-20 16:50:14","2009-04-20 16:50:14"
55,17,27,"2009-04-20 16:50:14","2009-04-20 16:50:14"
56,17,28,"2009-04-20 16:50:14","2009-04-20 16:50:14"
57,17,29,"2009-04-20 16:50:14","2009-04-20 16:50:14"
58,17,30,"2009-04-20 16:50:14","2009-04-20 16:50:14"
59,18,3,"2009-04-20 16:50:14","2009-04-20 16:50:14"
60,18,9,"2009-04-20 16:50:14","2009-04-20 16:50:14"
61,18,11,"2009-04-20 16:50:14","2009-04-20 16:50:14"
62,18,14,"2009-04-20 16:50:14","2009-04-20 16:50:14"
63,18,15,"2009-04-20 16:50:14","2009-04-20 16:50:14"
64,18,16,"2009-04-20 16:50:14","2009-04-20 16:50:14"
65,18,17,"2009-04-20 16:50:14","2009-04-20 16:50:14"
66,18,18,"2009-04-20 16:50:14","2009-04-20 16:50:14"
67,18,19,"2009-04-20 16:50:14","2009-04-20 16:50:14"
68,18,22,"2009-04-20 16:50:14","2009-04-20 16:50:14"
69,18,27,"2009-04-20 16:50:14","2009-04-20 16:50:14"
70,18,26,"2009-04-20 16:50:14","2009-04-20 16:50:14"
71,18,30,"2009-04-20 16:50:14","2009-04-20 16:50:14"
72,19,1,"2009-04-20 16:50:14","2009-04-20 16:50:14"
73,19,3,"2009-04-20 16:50:14","2009-04-20 16:50:14"
74,19,4,"2009-04-20 16:50:14","2009-04-20 16:50:14"
75,19,6,"2009-04-20 16:50:14","2009-04-20 16:50:14"
76,19,7,"2009-04-20 16:50:14","2009-04-20 16:50:14"
77,19,9,"2009-04-20 16:50:14","2009-04-20 16:50:14"
78,19,11,"2009-04-20 16:50:14","2009-04-20 16:50:14"
79,19,12,"2009-04-20 16:50:14","2009-04-20 16:50:14"
80,19,14,"2009-04-20 16:50:14","2009-04-20 16:50:14"
81,19,16,"2009-04-20 16:50:14","2009-04-20 16:50:14"
82,19,17,"2009-04-20 16:50:14","2009-04-20 16:50:14"
83,19,18,"2009-04-20 16:50:14","2009-04-20 16:50:14"
84,19,19,"2009-04-20 16:50:14","2009-04-20 16:50:14"
85,19,20,"2009-04-20 16:50:14","2009-04-20 16:50:14"
86,19,21,"2009-04-20 16:50:14","2009-04-20 16:50:14"
87,19,22,"2009-04-20 16:50:14","2009-04-20 16:50:14"
88,19,23,"2009-04-20 16:50:14","2009-04-20 16:50:14"
89,19,26,"2009-04-20 16:50:14","2009-04-20 16:50:14"
90,19,27,"2009-04-20 16:50:14","2009-04-20 16:50:14"
91,19,29,"2009-04-20 16:50:14","2009-04-20 16:50:14"
92,19,30,"2009-04-20 16:50:14","2009-04-20 16:50:14"
93,9,1,"2009-04-20 16:50:14","2009-04-20 16:50:14"
94,9,2,"2009-04-20 16:50:14","2009-04-20 16:50:14"
95,9,3,"2009-04-20 16:50:14","2009-04-20 16:50:14"
96,9,4,"2009-04-20 16:50:14","2009-04-20 16:50:14"
97,9,5,"2009-04-20 16:50:14","2009-04-20 16:50:14"
98,9,6,"2009-04-20 16:50:14","2009-04-20 16:50:14"
99,9,7,"2009-04-20 16:50:14","2009-04-20 16:50:14"
100,9,8,"2009-04-20 16:50:14","2009-04-20 16:50:14"
101,9,9,"2009-04-20 16:50:14","2009-04-20 16:50:14"
102,9,10,"2009-04-20 16:50:14","2009-04-20 16:50:14"
103,9,11,"2009-04-20 16:50:14","2009-04-20 16:50:14"
104,9,12,"2009-04-20 16:50:14","2009-04-20 16:50:14"
105,9,13,"2009-04-20 16:50:14","2009-04-20 16:50:14"
106,9,14,"2009-04-20 16:50:14","2009-04-20 16:50:14"
107,9,15,"2009-04-20 16:50:14","2009-04-20 16:50:14"
108,9,16,"2009-04-20 16:50:14","2009-04-20 16:50:14"
109,9,17,"2009-04-20 16:50:14","2009-04-20 16:50:14"
110,9,18,"2009-04-20 16:50:14","2009-04-20 16:50:14"
111,9,19,"2009-04-20 16:50:14","2009-04-20 16:50:14"
112,9,20,"2009-04-20 16:50:14","2009-04-20 16:50:14"
113,9,21,"2009-04-20 16:50:14","2009-04-20 16:50:14"
114,9,22,"2009-04-20 16:50:14","2009-04-20 16:50:14"
115,9,23,"2009-04-20 16:50:14","2009-04-20 16:50:14"
116,9,24,"2009-04-20 16:50:14","2009-04-20 16:50:14"
117,9,26,"2009-04-20 16:50:14","2009-04-20 16:50:14"
118,9,27,"2009-04-20 16:50:14","2009-04-20 16:50:14"
119,9,28,"2009-04-20 16:50:14","2009-04-20 16:50:14"
120,9,29,"2009-04-20 16:50:14","2009-04-20 16:50:14"
121,9,30,"2009-04-20 16:50:14","2009-04-20 16:50:14"
122,2,1,"2009-04-20 16:50:14","2009-04-20 16:50:14"
123,2,2,"2009-04-20 16:50:14","2009-04-20 16:50:14"
124,2,3,"2009-04-20 16:50:14","2009-04-20 16:50:14"
125,2,4,"2009-04-20 16:50:14","2009-04-20 16:50:14"
126,2,5,"2009-04-20 16:50:14","2009-04-20 16:50:14"
127,2,6,"2009-04-20 16:50:14","2009-04-20 16:50:14"
128,2,7,"2009-04-20 16:50:14","2009-04-20 16:50:14"
129,2,8,"2009-04-20 16:50:14","2009-04-20 16:50:14"
130,2,9,"2009-04-20 16:50:14","2009-04-20 16:50:14"
131,2,10,"2009-04-20 16:50:14","2009-04-20 16:50:14"
132,2,11,"2009-04-20 16:50:14","2009-04-20 16:50:14"
133,2,12,"2009-04-20 16:50:14","2009-04-20 16:50:14"
134,2,13,"2009-04-20 16:50:14","2009-04-20 16:50:14"
135,2,14,"2009-04-20 16:50:15","2009-04-20 16:50:15"
136,2,15,"2009-04-20 16:50:15","2009-04-20 16:50:15"
137,2,16,"2009-04-20 16:50:15","2009-04-20 16:50:15"
138,2,17,"2009-04-20 16:50:15","2009-04-20 16:50:15"
139,2,18,"2009-04-20 16:50:15","2009-04-20 16:50:15"
140,2,19,"2009-04-20 16:50:15","2009-04-20 16:50:15"
141,2,20,"2009-04-20 16:50:15","2009-04-20 16:50:15"
142,2,21,"2009-04-20 16:50:15","2009-04-20 16:50:15"
143,2,22,"2009-04-20 16:50:15","2009-04-20 16:50:15"
144,2,23,"2009-04-20 16:50:15","2009-04-20 16:50:15"
145,2,24,"2009-04-20 16:50:15","2009-04-20 16:50:15"
146,2,26,"2009-04-20 16:50:15","2009-04-20 16:50:15"
147,2,27,"2009-04-20 16:50:15","2009-04-20 16:50:15"
148,2,28,"2009-04-20 16:50:15","2009-04-20 16:50:15"
149,2,29,"2009-04-20 16:50:15","2009-04-20 16:50:15"
150,2,30,"2009-04-20 16:50:15","2009-04-20 16:50:15"
151,1,1,"2009-04-20 16:50:15","2009-04-20 16:50:15"
152,1,23,"2009-04-20 16:50:15","2009-04-20 16:50:15"
153,1,3,"2009-04-20 16:50:15","2009-04-20 16:50:15"
154,1,29,"2009-04-20 16:50:15","2009-04-20 16:50:15"
155,1,9,"2009-04-20 16:50:15","2009-04-20 16:50:15"
156,1,24,"2009-04-20 16:50:15","2009-04-20 16:50:15"
157,1,30,"2009-04-20 16:50:15","2009-04-20 16:50:15"
158,1,22,"2009-04-20 16:50:15","2009-04-20 16:50:15"
159,1,13,"2009-04-20 16:50:15","2009-04-20 16:50:15"
160,4,7,"2009-04-20 16:50:15","2009-04-20 16:50:15"
161,4,8,"2009-04-20 16:50:15","2009-04-20 16:50:15"
162,4,10,"2009-04-20 16:50:15","2009-04-20 16:50:15"
163,4,23,"2009-04-20 16:50:15","2009-04-20 16:50:15"
164,4,20,"2009-04-20 16:50:15","2009-04-20 16:50:15"
165,4,24,"2009-04-20 16:50:15","2009-04-20 16:50:15"
166,4,30,"2009-04-20 16:50:15","2009-04-20 16:50:15"
167,10,1,"2009-04-20 16:50:15","2009-04-20 16:50:15"
168,10,2,"2009-04-20 16:50:15","2009-04-20 16:50:15"
169,10,3,"2009-04-20 16:50:15","2009-04-20 16:50:15"
170,10,4,"2009-04-20 16:50:15","2009-04-20 16:50:15"
171,10,5,"2009-04-20 16:50:15","2009-04-20 16:50:15"
172,10,6,"2009-04-20 16:50:15","2009-04-20 16:50:15"
173,10,7,"2009-04-20 16:50:15","2009-04-20 16:50:15"
174,10,8,"2009-04-20 16:50:15","2009-04-20 16:50:15"
175,10,9,"2009-04-20 16:50:15","2009-04-20 16:50:15"
176,10,10,"2009-04-20 16:50:15","2009-04-20 16:50:15"
177,10,11,"2009-04-20 16:50:15","2009-04-20 16:50:15"
178,10,12,"2009-04-20 16:50:15","2009-04-20 16:50:15"
179,10,13,"2009-04-20 16:50:15","2009-04-20 16:50:15"
180,10,14,"2009-04-20 16:50:15","2009-04-20 16:50:15"
181,10,15,"2009-04-20 16:50:15","2009-04-20 16:50:15"
182,10,16,"2009-04-20 16:50:15","2009-04-20 16:50:15"
183,10,17,"2009-04-20 16:50:15","2009-04-20 16:50:15"
184,10,18,"2009-04-20 16:50:15","2009-04-20 16:50:15"
185,10,19,"2009-04-20 16:50:15","2009-04-20 16:50:15"
186,10,20,"2009-04-20 16:50:15","2009-04-20 16:50:15"
187,10,21,"2009-04-20 16:50:15","2009-04-20 16:50:15"
188,10,22,"2009-04-20 16:50:15","2009-04-20 16:50:15"
189,10,23,"2009-04-20 16:50:15","2009-04-20 16:50:15"
190,10,24,"2009-04-20 16:50:15","2009-04-20 16:50:15"
191,10,26,"2009-04-20 16:50:15","2009-04-20 16:50:15"
192,10,27,"2009-04-20 16:50:15","2009-04-20 16:50:15"
193,10,28,"2009-04-20 16:50:15","2009-04-20 16:50:15"
194,10,29,"2009-04-20 16:50:15","2009-04-20 16:50:15"
195,10,30,"2009-04-20 16:50:15","2009-04-20 16:50:15"
196,12,1,"2009-04-20 16:50:15","2009-04-20 16:50:15"
197,12,2,"2009-04-20 16:50:15","2009-04-20 16:50:15"
198,12,3,"2009-04-20 16:50:15","2009-04-20 16:50:15"
199,12,4,"2009-04-20 16:50:15","2009-04-20 16:50:15"
200,12,5,"2009-04-20 16:50:15","2009-04-20 16:50:15"
201,12,6,"2009-04-20 16:50:15","2009-04-20 16:50:15"
202,12,7,"2009-04-20 16:50:15","2009-04-20 16:50:15"
203,12,8,"2009-04-20 16:50:15","2009-04-20 16:50:15"
204,12,9,"2009-04-20 16:50:15","2009-04-20 16:50:15"
205,12,10,"2009-04-20 16:50:15","2009-04-20 16:50:15"
206,12,11,"2009-04-20 16:50:15","2009-04-20 16:50:15"
207,12,12,"2009-04-20 16:50:15","2009-04-20 16:50:15"
208,12,13,"2009-04-20 16:50:15","2009-04-20 16:50:15"
209,12,14,"2009-04-20 16:50:15","2009-04-20 16:50:15"
210,12,15,"2009-04-20 16:50:15","2009-04-20 16:50:15"
211,12,16,"2009-04-20 16:50:15","2009-04-20 16:50:15"
212,12,17,"2009-04-20 16:50:15","2009-04-20 16:50:15"
213,12,18,"2009-04-20 16:50:15","2009-04-20 16:50:15"
214,12,19,"2009-04-20 16:50:15","2009-04-20 16:50:15"
215,12,20,"2009-04-20 16:50:15","2009-04-20 16:50:15"
216,12,21,"2009-04-20 16:50:15","2009-04-20 16:50:15"
217,12,22,"2009-04-20 16:50:15","2009-04-20 16:50:15"
218,12,23,"2009-04-20 16:50:15","2009-04-20 16:50:15"
219,12,24,"2009-04-20 16:50:15","2009-04-20 16:50:15"
220,12,26,"2009-04-20 16:50:15","2009-04-20 16:50:15"
221,12,27,"2009-04-20 16:50:15","2009-04-20 16:50:15"
222,12,28,"2009-04-20 16:50:15","2009-04-20 16:50:15"
223,12,29,"2009-04-20 16:50:15","2009-04-20 16:50:15"
224,12,30,"2009-04-20 16:50:15","2009-04-20 16:50:15"
225,6,1,"2009-04-20 16:50:15","2009-04-20 16:50:15"
226,6,7,"2009-04-20 16:50:15","2009-04-20 16:50:15"
227,6,8,"2009-04-20 16:50:15","2009-04-20 16:50:15"
228,6,10,"2009-04-20 16:50:15","2009-04-20 16:50:15"
229,6,23,"2009-04-20 16:50:15","2009-04-20 16:50:15"
230,6,20,"2009-04-20 16:50:15","2009-04-20 16:50:15"
231,6,24,"2009-04-20 16:50:15","2009-04-20 16:50:15"
232,6,30,"2009-04-20 16:50:15","2009-04-20 16:50:15"
233,6,24,"2009-04-20 16:50:15","2009-04-20 16:50:15"
234,6,16,"2009-04-20 16:50:15","2009-04-20 16:50:15"
