<?xml version="1.0" encoding="utf-8"?>
<!-- Generator: Adobe Illustrator 26.2.1, SVG Export Plug-In . SVG Version: 6.00 Build 0)  -->
<svg version="1.1" id="Layer_1" xmlns="http://www.w3.org/2000/svg" xmlns:xlink="http://www.w3.org/1999/xlink" x="0px" y="0px"
	 viewBox="0 0 636.7 636.7" style="enable-background:new 0 0 636.7 636.7;" xml:space="preserve">
<g>
	<g>
		<path fill="white" d="M318.3,109.9c115.1,0,208.4,93.3,208.4,208.4s-93.3,208.4-208.4,208.4s-208.4-93.3-208.4-208.4S203.2,109.9,318.3,109.9
			 M318.3,52.7C171.5,52.8,52.7,171.8,52.7,318.5c0,106.7,63.9,203,162.1,244.5c135.1,57.1,291-6.2,348.1-141.3
			s-6.2-291-141.3-348.1c0,0,0,0,0,0C388.9,59.7,353.8,52.6,318.3,52.7z"/>
		<g>
			<path fill="white" d="M285.5,195.7c0-8.8,2.9-16,8.8-21.7c5.9-5.7,13.9-8.5,24-8.5c10,0,18,2.8,23.9,8.5c5.9,5.7,8.9,12.9,8.9,21.7
				c0,8.9-3,16.2-9,21.9c-6,5.7-13.9,8.5-23.8,8.5c-9.9,0-17.8-2.8-23.8-8.5C288.5,211.9,285.5,204.6,285.5,195.7z M347.7,471.2H289
				v-219h58.7V471.2z"/>
		</g>
	</g>
</g>
</svg>
