{
  "networkMode": "bridge",
  "taskRoleArn": "arn:aws:iam::738011128897:role/S3SecretsRoleStaging",
  "memory": "%WEB_MEMORY_UNITS%",
  "containerDefinitions": [
    {
      "name": "puma",
      "environment": [
        {
          "name": "IMAGE_PREFIX",
          "value": "%IMAGE_PREFIX%"
        },
        {
          "name": "RAILS_ENV",
          "value": "%RAILS_ENV%"
        },
        {
          "name": "DEPLOY_ENV",
          "value": "%DEPLOY_ENV%"
        },
        {
          "name": "SECRETS_FILE",
          "value": "secrets.tunecore.com/%DEPLOY_ENV%/tc-www/secrets.txt"
        },
        {
          "name": "DEPLOYMENT_FILE",
          "value": "infra.tunecore.com/deployment/%DEPLOY_ENV%/deployment.txt"
        },
        {
          "name": "SET_CONTAINER_TIMEZONE",
          "value": "true"
        },
        {
          "name": "CONTAINER_TIMEZONE",
          "value": "America/Chicago"
        }
      ],
      "image": "738011128897.dkr.ecr.us-east-1.amazonaws.com/tunecore/tc-www:%IMAGE_PREFIX%-puma-%COMMIT_SHORT%",
      "logConfiguration": {
        "logDriver": "awslogs",
        "options": {
          "awslogs-group": "tc-www-%DEPLOY_ENV%-puma",
          "awslogs-region": "us-east-1",
          "awslogs-stream-prefix": "puma"
        }
      },
      "cpu": %PUMA_CPU_UNITS%,
      "memoryReservation": %PUMA_MEMORY_UNITS%
    },
    {
      "name": "nginx",
      "portMappings": [
        {
          "hostPort": 0,
          "containerPort": 81,
          "protocol": "tcp"
        }
      ],
      "links": [
        "puma:puma"
      ],
      "image": "738011128897.dkr.ecr.us-east-1.amazonaws.com/tunecore/tc-www:%IMAGE_PREFIX%-nginx-%COMMIT_SHORT%",
      "logConfiguration": {
        "logDriver": "awslogs",
        "options": {
          "awslogs-group": "tc-www-%DEPLOY_ENV%-nginx",
          "awslogs-region": "us-east-1",
          "awslogs-stream-prefix": "nginx"
        }
      },
      "cpu": %NGINX_CPU_UNITS%,
      "memoryReservation": %NGINX_MEMORY_UNITS%
    }
  ],
  "family": "tc-www-%DEPLOY_ENV%-web-nginx_puma"
}
