{
  "networkMode": "bridge",
  "taskRoleArn": "arn:aws:iam::738011128897:role/S3SecretsRoleStaging",
  "memory": "%SIDEKIQ_TOTAL_MEMORY%",
  "containerDefinitions": [
    {
      "name": "%DEPLOY_ENV%",
      "environment": [
        {
          "name": "RAILS_ENV",
          "value": "%RAILS_ENV%"
        },
        {
          "name": "DEPLOY_ENV",
          "value": "%DEPLOY_ENV%"
        },
        {
          "name": "SECRETS_FILE",
          "value": "secrets.tunecore.com/%DEPLOY_ENV%/tc-www/secrets.txt"
        },
        {
          "name": "DEPLOYMENT_FILE",
          "value": "infra.tunecore.com/deployment/%DEPLOY_ENV%/deployment.txt"
        },
        {
          "name": "SET_CONTAINER_TIMEZONE",
          "value": "true"
        },
        {
          "name": "CONTAINER_TIMEZONE",
          "value": "America/Chicago"
        },
        {
          "name": "SIDEKIQ_ENV",
          "value": "%SIDEKIQ_ENV%"
        }
      ],
      "image": "738011128897.dkr.ecr.us-east-1.amazonaws.com/tunecore/tc-www:%DEPLOY_ENV%-sidekiq-%COMMIT_SHORT%",
      "logConfiguration": {
        "logDriver": "awslogs",
        "options": {
          "awslogs-group": "tc-www-%DEPLOY_ENV%-sidekiq-%SIDEKIQ_ENV%",
          "awslogs-region": "us-east-1",
          "awslogs-stream-prefix": "sidekiq"
        }
      },
      "cpu": %SIDEKIQ_CPU_UNITS%,
      "memoryReservation": %SIDEKIQ_MEMORY_UNITS%
    }
  ],
  "family": "tc-www-%DEPLOY_ENV%-sidekiq-%SIDEKIQ_ENV%"
}
