[
  {
    "name" : "Ali Brustofski",
    "genre" : "Singer/Songwriter",
    "imgsrc" : "/images/i_am_tunecore/ali_brustofski_440px.jpg",
    "alttext" : "I am Tunecore because they let me get my music out there my own way - independently!"
  },
  {
    "name" : "Aprilemade",
    "genre" : "Singer/Songwriter",
    "imgsrc" : "/images/i_am_tunecore/aprilemade_440px.jpg",
    "alttext" : "I am TuneCore because it allows my music to be heard by a worldwide audience!"
  },
  {
    "name" : "Mikey Wax",
    "genre" : "Singer/Songwriter",
    "imgsrc" : "/images/i_am_tunecore/mikey_wax_440px.jpg",
    "alttext" : "I am TuneCore because they allow my fans to easily hear the music!"
  },
  {
    "name" : "Ron Pope",
    "genre" : "Rock",
    "imgsrc" : "/images/i_am_tunecore/ron_pope_440px.jpg",
    "alttext" : "I am TuneCore because they helped me get from playing in the subway to playing all over the world. :)"
  },
  {
    "name" : "Justin Garner",
    "genre" : "R&B/Soul",
    "imgsrc" : "/images/i_am_tunecore/justin_garner_440px.jpg",
    "alttext" : "I am TuneCore because I trust them with my music!"
  },
  {
    "name" : "Sylwester",
    "genre" : "Electronic",
    "imgsrc" : "/images/i_am_tunecore/sylwester_440px.jpg",
    "alttext" : "I am TuneCore because they changed the game so everyone can be heard!"
  },
  {
    "name" : "Jamie Jarone",
    "genre" : "Pop",
    "imgsrc" : "/images/i_am_tunecore/jamie_jarone_440px.jpg",
    "alttext" : "I am TuneCore because I can express myself through music MY OWN WAY <3"
  },
  {
    "name" : "Darling Parade",
    "genre" : "Alternative",
    "imgsrc" : "/images/i_am_tunecore/darling_parade_440px.jpg",
    "alttext" : "I am TuneCore because they SHOW US THE MONEY…faster!!!!"
  },
  {
    "name" : "Adam Pluse",
    "genre" : "Singer/Songwriter",
    "imgsrc" : "/images/i_am_tunecore/adam_pluse_440px.jpg",
    "alttext" : "I am TuneCore because it’s my porthole to the world"
  },
  {
    "name" : "Emmy",
    "genre" : "Pop",
    "imgsrc" : "/images/i_am_tunecore/emmy_440px.jpg",
    "alttext" : "I am TuneCore because it is the easiest and best way to share my music with everybody!"
  },
  {
    "name" : "Blood on the Dance Floor",
    "genre" : "Pop",
    "imgsrc" : "/images/i_am_tunecore/botdf_440px.jpg",
    "alttext" : "I am TuneCore because I control my music"
  },
  {
    "name" : "HoneyChrome",
    "genre" : "Alternative",
    "imgsrc" : "/images/i_am_tunecore/honeychrome_440px.jpg",
    "alttext" : "I am TuneCore because they propel &amp; support innovation"
  },
  {
    "name" : "JoJo",
    "genre" : "Hip-Hop/Rap",
    "imgsrc" : "/images/i_am_tunecore/jojo_440px.jpg",
    "alttext" : "I am TuneCore because they helped me make a living doing what I love"
  },
  {
    "name" : "Mike Tess",
    "genre" : "Hip-Hop/Rap",
    "imgsrc" : "/images/i_am_tunecore/mike_tess_440px.jpg",
    "alttext" : "I am TuneCore because they work with me directly - no middle man"
  }
]