{
    "name": "tc-www-production-api-deploy",
    "description": "Deploy for tc-www repo to production environment",
    "source": {
        "buildspec": "infra/buildspecs/buildspec_nginx_puma_deploy.yml",
        "type": "GITHUB",
        "location": "https://github.com/tunecore/tc-www.git",
        "auth": {
            "type": "OAUTH"
        }
    },
    "artifacts": {
        "namespaceType": "NONE",
        "packaging": "NONE",
        "type": "S3",
        "location": "codepipeline-us-east-1-791406243519",
        "name": "tc-www-production-api-deploy"
    },
    "environment": {
        "computeType": "BUILD_GENERAL1_MEDIUM",
        "privilegedMode": true,
        "image": "aws/codebuild/docker:17.09.0",
        "type": "LINUX_CONTAINER",
        "environmentVariables": [
            {
                "name": "IMAGE_PREFIX",
                "value": "production"
            },
            {
                "name": "RAILS_ENV",
                "value": "production"
            },
            {
                "name": "DEPLOY_ENV",
                "value": "api"
            },
            {
                "name": "DESIRED_COUNT",
                "value": "2"
            },
            {
                "name": "NGINX_CPU_UNITS",
                "value": "512"
            },
            {
                "name": "NGINX_MEMORY_UNITS",
                "value": "2000"
            },
            {
                "name": "PUMA_CPU_UNITS",
                "value": "1536"
            },
            {
                "name": "PUMA_MEMORY_UNITS",
                "value": "6000"
            }
        ]
    },
    "serviceRole": "arn:aws:iam::738011128897:role/service-role/codebuild-tc-www-staging-deploy-service-role",
    "timeoutInMinutes": 60,
    "encryptionKey": "arn:aws:kms:us-east-1:738011128897:alias/aws/s3",
    "tags": []
}
