// Jest Snapshot v1, https://goo.gl/fbAQLP

exports[`helpers .appURLs > host: (qa.tunecore.com) 1`] = `
Object {
  "admin": "//qa.tunecore.com/admin",
  "cart": "//qa.tunecore.com/cart",
  "createdSplits": "//qa.tunecore.com/royalty_splits",
  "credits": "//qa.tunecore.com/credits",
  "dashboard": "//qa.tunecore.com/dashboard",
  "discography": "//qa.tunecore.com/discography",
  "editAccount": "//qa.tunecore.com/people/123/edit",
  "facebookDashboard": "//qa.tunecore.com/facebook_tracks/dashboard",
  "logout": "//qa.tunecore.com/logout",
  "myAccountTransactions": "//qa.tunecore.com/my_account/list_transactions",
  "newAlbum": "//qa.tunecore.com/albums/new",
  "newRingtone": "//qa.tunecore.com/ringtones/new",
  "newSingle": "//qa.tunecore.com/singles/new",
  "notifications": "//qa.tunecore.com/notifications",
  "plans": "//qa.tunecore.com/plans",
  "releaseAccount": "//qa.tunecore.com/account/release_account",
  "salesReport": "//qa.tunecore.com/sales/date_report",
  "splitsInvites": "//qa.tunecore.com/royalty_splits/invited",
  "storeManager": "//qa.tunecore.com/store_manager",
  "trendsReport": "//qa.tunecore.com/trend_reports",
  "youtubeMonetizations": "//qa.tunecore.com/youtube_monetizations",
}
`;

exports[`helpers .appURLs > host: (qa.tunecore.fr) 1`] = `
Object {
  "admin": "//qa.tunecore.fr/admin",
  "cart": "//qa.tunecore.fr/cart",
  "createdSplits": "//qa.tunecore.fr/royalty_splits",
  "credits": "//qa.tunecore.fr/credits",
  "dashboard": "//qa.tunecore.fr/dashboard",
  "discography": "//qa.tunecore.fr/discography",
  "editAccount": "//qa.tunecore.fr/people/123/edit",
  "facebookDashboard": "//qa.tunecore.fr/facebook_tracks/dashboard",
  "logout": "//qa.tunecore.fr/logout",
  "myAccountTransactions": "//qa.tunecore.fr/my_account/list_transactions",
  "newAlbum": "//qa.tunecore.fr/albums/new",
  "newRingtone": "//qa.tunecore.fr/ringtones/new",
  "newSingle": "//qa.tunecore.fr/singles/new",
  "notifications": "//qa.tunecore.fr/notifications",
  "plans": "//qa.tunecore.fr/plans",
  "releaseAccount": "//qa.tunecore.fr/account/release_account",
  "salesReport": "//qa.tunecore.fr/sales/date_report",
  "splitsInvites": "//qa.tunecore.fr/royalty_splits/invited",
  "storeManager": "//qa.tunecore.fr/store_manager",
  "trendsReport": "//qa.tunecore.fr/trend_reports",
  "youtubeMonetizations": "//qa.tunecore.fr/youtube_monetizations",
}
`;

exports[`helpers .appURLs > host: (stagingwp.tunecore.com) 1`] = `
Object {
  "admin": "//uat.tunecore.com/admin",
  "cart": "//uat.tunecore.com/cart",
  "createdSplits": "//uat.tunecore.com/royalty_splits",
  "credits": "//uat.tunecore.com/credits",
  "dashboard": "//uat.tunecore.com/dashboard",
  "discography": "//uat.tunecore.com/discography",
  "editAccount": "//uat.tunecore.com/people/123/edit",
  "facebookDashboard": "//uat.tunecore.com/facebook_tracks/dashboard",
  "logout": "//uat.tunecore.com/logout",
  "myAccountTransactions": "//uat.tunecore.com/my_account/list_transactions",
  "newAlbum": "//uat.tunecore.com/albums/new",
  "newRingtone": "//uat.tunecore.com/ringtones/new",
  "newSingle": "//uat.tunecore.com/singles/new",
  "notifications": "//uat.tunecore.com/notifications",
  "plans": "//uat.tunecore.com/plans",
  "releaseAccount": "//uat.tunecore.com/account/release_account",
  "salesReport": "//uat.tunecore.com/sales/date_report",
  "splitsInvites": "//uat.tunecore.com/royalty_splits/invited",
  "storeManager": "//uat.tunecore.com/store_manager",
  "trendsReport": "//uat.tunecore.com/trend_reports",
  "youtubeMonetizations": "//uat.tunecore.com/youtube_monetizations",
}
`;

exports[`helpers .appURLs > host: (web.tunecore.co.uk) 1`] = `
Object {
  "admin": "//web.tunecore.co.uk/admin",
  "cart": "//web.tunecore.co.uk/cart",
  "createdSplits": "//web.tunecore.co.uk/royalty_splits",
  "credits": "//web.tunecore.co.uk/credits",
  "dashboard": "//web.tunecore.co.uk/dashboard",
  "discography": "//web.tunecore.co.uk/discography",
  "editAccount": "//web.tunecore.co.uk/people/123/edit",
  "facebookDashboard": "//web.tunecore.co.uk/facebook_tracks/dashboard",
  "logout": "//web.tunecore.co.uk/logout",
  "myAccountTransactions": "//web.tunecore.co.uk/my_account/list_transactions",
  "newAlbum": "//web.tunecore.co.uk/albums/new",
  "newRingtone": "//web.tunecore.co.uk/ringtones/new",
  "newSingle": "//web.tunecore.co.uk/singles/new",
  "notifications": "//web.tunecore.co.uk/notifications",
  "plans": "//web.tunecore.co.uk/plans",
  "releaseAccount": "//web.tunecore.co.uk/account/release_account",
  "salesReport": "//web.tunecore.co.uk/sales/date_report",
  "splitsInvites": "//web.tunecore.co.uk/royalty_splits/invited",
  "storeManager": "//web.tunecore.co.uk/store_manager",
  "trendsReport": "//web.tunecore.co.uk/trend_reports",
  "youtubeMonetizations": "//web.tunecore.co.uk/youtube_monetizations",
}
`;

exports[`helpers .appURLs > host: (www.tunecore.co.uk) 1`] = `
Object {
  "admin": "//web.tunecore.co.uk/admin",
  "cart": "//web.tunecore.co.uk/cart",
  "createdSplits": "//web.tunecore.co.uk/royalty_splits",
  "credits": "//web.tunecore.co.uk/credits",
  "dashboard": "//web.tunecore.co.uk/dashboard",
  "discography": "//web.tunecore.co.uk/discography",
  "editAccount": "//web.tunecore.co.uk/people/123/edit",
  "facebookDashboard": "//web.tunecore.co.uk/facebook_tracks/dashboard",
  "logout": "//web.tunecore.co.uk/logout",
  "myAccountTransactions": "//web.tunecore.co.uk/my_account/list_transactions",
  "newAlbum": "//web.tunecore.co.uk/albums/new",
  "newRingtone": "//web.tunecore.co.uk/ringtones/new",
  "newSingle": "//web.tunecore.co.uk/singles/new",
  "notifications": "//web.tunecore.co.uk/notifications",
  "plans": "//web.tunecore.co.uk/plans",
  "releaseAccount": "//web.tunecore.co.uk/account/release_account",
  "salesReport": "//web.tunecore.co.uk/sales/date_report",
  "splitsInvites": "//web.tunecore.co.uk/royalty_splits/invited",
  "storeManager": "//web.tunecore.co.uk/store_manager",
  "trendsReport": "//web.tunecore.co.uk/trend_reports",
  "youtubeMonetizations": "//web.tunecore.co.uk/youtube_monetizations",
}
`;

exports[`helpers .appURLs > host: (www.tunecore.com) 1`] = `
Object {
  "admin": "//web.tunecore.com/admin",
  "cart": "//web.tunecore.com/cart",
  "createdSplits": "//web.tunecore.com/royalty_splits",
  "credits": "//web.tunecore.com/credits",
  "dashboard": "//web.tunecore.com/dashboard",
  "discography": "//web.tunecore.com/discography",
  "editAccount": "//web.tunecore.com/people/123/edit",
  "facebookDashboard": "//web.tunecore.com/facebook_tracks/dashboard",
  "logout": "//web.tunecore.com/logout",
  "myAccountTransactions": "//web.tunecore.com/my_account/list_transactions",
  "newAlbum": "//web.tunecore.com/albums/new",
  "newRingtone": "//web.tunecore.com/ringtones/new",
  "newSingle": "//web.tunecore.com/singles/new",
  "notifications": "//web.tunecore.com/notifications",
  "plans": "//web.tunecore.com/plans",
  "releaseAccount": "//web.tunecore.com/account/release_account",
  "salesReport": "//web.tunecore.com/sales/date_report",
  "splitsInvites": "//web.tunecore.com/royalty_splits/invited",
  "storeManager": "//web.tunecore.com/store_manager",
  "trendsReport": "//web.tunecore.com/trend_reports",
  "youtubeMonetizations": "//web.tunecore.com/youtube_monetizations",
}
`;

exports[`helpers .isValidPath > no error when paths are valid 1`] = `
Object {
  "test": "//web.tunecore.com/with/leading/slash",
}
`;

exports[`helpers .pickArtistServicesCmsUrl > host: (foo.tunecore.ca) 1`] = `"https://www.tunecore.ca/artist-services"`;

exports[`helpers .pickArtistServicesCmsUrl > host: (foo.tunecore.co.uk) 1`] = `"https://www.tunecore.co.uk/artist-services"`;

exports[`helpers .pickArtistServicesCmsUrl > host: (foo.tunecore.com) 1`] = `"https://www.tunecore.com/artist-services"`;

exports[`helpers .pickArtistServicesCmsUrl > host: (foo.tunecore.com.au) 1`] = `"https://www.tunecore.com.au/artist-services"`;

exports[`helpers .pickArtistServicesCmsUrl > host: (foo.tunecore.de) 1`] = `"https://www.tunecore.de/kuenstler_service"`;

exports[`helpers .pickArtistServicesCmsUrl > host: (foo.tunecore.fr) 1`] = `"https://www.tunecore.fr/services-partenaires"`;

exports[`helpers .pickArtistServicesCmsUrl > host: (foo.tunecore.in) 1`] = `"https://www.tunecore.com/artist-services"`;

exports[`helpers .pickArtistServicesCmsUrl > host: (foo.tunecore.it) 1`] = `"https://www.tunecore.it/servizi-aggiuntivi"`;

exports[`helpers .replaceTld > url: (//qa.tunecore.com), page TLD: 'foo' 1`] = `"//qa.tunecore.foo"`;

exports[`helpers .replaceTld > url: (//qa.tunecore.com/with/path), page TLD: 'foo' 1`] = `"//qa.tunecore.foo/with/path"`;

exports[`helpers .replaceTld > url: (//qa.tunecore.fr), page TLD: 'foo' 1`] = `"//qa.tunecore.foo"`;

exports[`helpers .replaceTld > url: (//stagingwp.tunecore.com), page TLD: 'foo' 1`] = `"//stagingwp.tunecore.foo"`;

exports[`helpers .replaceTld > url: (//tunecore.com), page TLD: 'foo' 1`] = `"//tunecore.foo"`;

exports[`helpers .replaceTld > url: (//web.tunecore.co.uk), page TLD: 'foo' 1`] = `"//web.tunecore.foo"`;

exports[`helpers .replaceTld > url: (//web.tunecore.co.uk/with/path), page TLD: 'foo' 1`] = `"//web.tunecore.foo/with/path"`;

exports[`helpers .replaceTld > url: (//www.tunecore.co.uk), page TLD: 'foo' 1`] = `"//www.tunecore.foo"`;

exports[`helpers .replaceTld > url: (//www.tunecore.com), page TLD: 'foo' 1`] = `"//www.tunecore.foo"`;

exports[`helpers .replaceTld > url: (//www.tunecore.com/), page TLD: 'foo' 1`] = `"//www.tunecore.foo/"`;
